makerchip-app/fsm/Downloads/vlt_dump.vcd
$version Generated by VerilatedVcd $end
$date Mon Jan  4 13:22:51 2021
 $end
$timescale   1ns $end

 $scope module TOP $end
  $var wire  1 E) clk $end
  $var wire  1 ]) failed $end
  $var wire  1 U) passed $end
  $var wire  1 M) reset_async $end
  $scope module makerchip $end
   $var wire  1 E) clk $end
   $var wire 32 K$ cyc_cnt [31:0] $end
   $var wire  1 ]) failed $end
   $var wire  1 U) passed $end
   $var wire  1 C$ reset $end
   $var wire  1 M) reset_async $end
   $scope module top $end
    $var wire  1 A' CTRL_Error_a0 $end
    $var wire  1 9' CTRL_Error_n1 $end
    $var wire  2 I' CTRL_Floor_a0 [1:0] $end
    $var wire  1 %! CTRL_Floor_called_a0(0) $end
    $var wire  1 &! CTRL_Floor_called_a0(1) $end
    $var wire  1 '! CTRL_Floor_called_a0(2) $end
    $var wire  1 ?" CTRL_Floor_called_above_a0(0) $end
    $var wire  1 @" CTRL_Floor_called_above_a0(1) $end
    $var wire  1 A" CTRL_Floor_called_above_a0(2) $end
    $var wire  1 W" CTRL_Floor_called_below_a0(0) $end
    $var wire  1 X" CTRL_Floor_called_below_a0(1) $end
    $var wire  1 Y" CTRL_Floor_called_below_a0(2) $end
    $var wire  3 C CTRL_Floor_down_pressed_a0 [2:0] $end
    $var wire  3 K CTRL_Floor_elevator_button_pressed_a0 [2:0] $end
    $var wire  2 +$ CTRL_Floor_n1 [1:0] $end
    $var wire  3 { CTRL_Floor_up_pressed_a0 [2:0] $end
    $var wire  1 3$ CTRL_go_down_a0 $end
    $var wire  1 Q' CTRL_go_down_a1 $end
    $var wire  1 ;$ CTRL_go_up_a0 $end
    $var wire  2 +$ CTRL_next_floor_a0 [1:0] $end
    $var wire  2 I' CTRL_next_floor_a1 [1:0] $end
    $var wire  1 C$ CTRL_reset_a0 $end
    $var wire  1 C$ L0_reset_a0 $end
    $var wire 257 S$ RW_rand_raw [256:0] $end
    $var wire 320 =% RW_rand_vect [319:0] $end
    $var wire  1 3 Version2_CTRL_called_bottom_a0 $end
    $var wire  1 ; Version2_CTRL_called_top_a0 $end
    $var wire  2 o& Version2_CTRL_down_light_a0 [2:1] $end
    $var wire  3 C Version2_CTRL_down_pressed_a0 [2:0] $end
    $var wire  3 K Version2_CTRL_elevator_button_pressed_a0 [2:0] $end
    $var wire  3 w& Version2_CTRL_elevator_light_a0 [2:0] $end
    $var wire  3 !' Version2_CTRL_floor_mask_a0 [2:0] $end
    $var wire  2 S Version2_CTRL_next_down_light_a0 [2:1] $end
    $var wire  2 o& Version2_CTRL_next_down_light_a1 [2:1] $end
    $var wire  3 [ Version2_CTRL_next_elevator_light_a0 [2:0] $end
    $var wire  3 w& Version2_CTRL_next_elevator_light_a1 [2:0] $end
    $var wire  3 c Version2_CTRL_next_floor_mask_a0 [2:0] $end
    $var wire  3 !' Version2_CTRL_next_floor_mask_a1 [2:0] $end
    $var wire  2 k Version2_CTRL_next_up_light_a0 [1:0] $end
    $var wire  2 )' Version2_CTRL_next_up_light_a1 [1:0] $end
    $var wire  1 s Version2_CTRL_next_went_down_a0 $end
    $var wire  1 1' Version2_CTRL_next_went_down_a1 $end
    $var wire  1 C$ Version2_CTRL_reset_a0 $end
    $var wire  2 )' Version2_CTRL_up_light_a0 [1:0] $end
    $var wire  3 { Version2_CTRL_up_pressed_a0 [2:0] $end
    $var wire  1 1' Version2_CTRL_went_down_a0 $end
    $var wire  1 + called_bottom $end
    $var wire  1 # called_top $end
    $var wire  1 E) clk $end
    $var wire 32 K$ cyc_cnt [31:0] $end
    $var wire  2 W& down_light [2:1] $end
    $var wire  3 7& down_pressed [2:0] $end
    $var wire  3 ?& elevator_button_pressed [2:0] $end
    $var wire  3 _& elevator_light [2:0] $end
    $var wire  1 ]) failed $end
    $var wire  3 G& floor_mask [2:0] $end
    $var wire  1 U) passed $end
    $var wire  1 C$ reset $end
    $var wire  2 O& up_light [1:0] $end
    $var wire  3 /& up_pressed [2:0] $end
    $var wire  1 g& went_down $end
    $var wire  1 e) went_up $end
    $scope module DEBUG_SIGS $end
     $var wire  1 C$ @0$reset $end
     $scope module /version2 $end
      $scope module |ctrl $end
       $var wire  1 3 >>@0$called_bottom $end
       $var wire  1 ; >>@0$called_top $end
       $var wire  2 o& >>@0$down_light [2:1] $end
       $var wire  3 C >>@0$down_pressed [2:0] $end
       $var wire  3 K >>@0$elevator_button_pressed [2:0] $end
       $var wire  3 w& >>@0$elevator_light [2:0] $end
       $var wire  3 !' >>@0$floor_mask [2:0] $end
       $var wire  2 S >>@0$next_down_light [2:1] $end
       $var wire  3 [ >>@0$next_elevator_light [2:0] $end
       $var wire  3 c >>@0$next_floor_mask [2:0] $end
       $var wire  2 k >>@0$next_up_light [1:0] $end
       $var wire  1 s >>@0$next_went_down $end
       $var wire  1 C$ >>@0$reset $end
       $var wire  2 )' >>@0$up_light [1:0] $end
       $var wire  3 { >>@0$up_pressed [2:0] $end
       $var wire  1 1' >>@0$went_down $end
      $upscope $end
     $upscope $end
     $scope module |ctrl $end
      $var wire  1 9' >@-1$Error $end
      $var wire  2 +$ >@-1$Floor [1:0] $end
      $var wire  1 3$ >@0$go_down $end
      $var wire  1 ;$ >@0$go_up $end
      $var wire  2 +$ >@0$next_floor [1:0] $end
      $var wire  1 C$ >@0$reset $end
      $scope module /floor(0) $end
       $var wire  1 o" >>@-1$DownLight $end
       $var wire  1 w" >>@-1$ElevatorLight $end
       $var wire  1 !# >>@-1$UpLight $end
       $var wire  1 =! >>@0$called $end
       $var wire  1 )# >>@0$called_above $end
       $var wire  1 1# >>@0$called_below $end
       $var wire  1 E! >>@0$down_pressed $end
       $var wire  1 M! >>@0$elevator_button_pressed $end
       $var wire  1 U! >>@0$up_pressed $end
      $upscope $end
      $scope module /floor(1) $end
       $var wire  1 9# >>@-1$DownLight $end
       $var wire  1 A# >>@-1$ElevatorLight $end
       $var wire  1 I# >>@-1$UpLight $end
       $var wire  1 ]! >>@0$called $end
       $var wire  1 Q# >>@0$called_above $end
       $var wire  1 Y# >>@0$called_below $end
       $var wire  1 e! >>@0$down_pressed $end
       $var wire  1 m! >>@0$elevator_button_pressed $end
       $var wire  1 u! >>@0$up_pressed $end
      $upscope $end
      $scope module /floor(2) $end
       $var wire  1 a# >>@-1$DownLight $end
       $var wire  1 i# >>@-1$ElevatorLight $end
       $var wire  1 q# >>@-1$UpLight $end
       $var wire  1 }! >>@0$called $end
       $var wire  1 y# >>@0$called_above $end
       $var wire  1 #$ >>@0$called_below $end
       $var wire  1 '" >>@0$down_pressed $end
       $var wire  1 /" >>@0$elevator_button_pressed $end
       $var wire  1 7" >>@0$up_pressed $end
      $upscope $end
     $upscope $end
    $upscope $end
    $scope module L1b_CTRL_Floor(0) $end
     $var wire  1 i' L1_DownLight_a0 $end
     $var wire  1 o" L1_DownLight_n1 $end
     $var wire  1 q' L1_ElevatorLight_a0 $end
     $var wire  1 w" L1_ElevatorLight_n1 $end
     $var wire  1 y' L1_UpLight_a0 $end
     $var wire  1 !# L1_UpLight_n1 $end
    $upscope $end
    $scope module L1b_CTRL_Floor(1) $end
     $var wire  1 #( L1_DownLight_a0 $end
     $var wire  1 9# L1_DownLight_n1 $end
     $var wire  1 +( L1_ElevatorLight_a0 $end
     $var wire  1 A# L1_ElevatorLight_n1 $end
     $var wire  1 3( L1_UpLight_a0 $end
     $var wire  1 I# L1_UpLight_n1 $end
    $upscope $end
    $scope module L1b_CTRL_Floor(2) $end
     $var wire  1 ;( L1_DownLight_a0 $end
     $var wire  1 a# L1_DownLight_n1 $end
     $var wire  1 C( L1_ElevatorLight_a0 $end
     $var wire  1 i# L1_ElevatorLight_n1 $end
     $var wire  1 K( L1_UpLight_a0 $end
     $var wire  1 q# L1_UpLight_n1 $end
    $upscope $end
    $scope module pseudo_rand $end
     $var wire 257 [( DEFAULT_lfsr_a1 [256:0] $end
     $var wire 257 S$ DEFAULT_lfsr_a2 [256:0] $end
     $var wire  1 C$ DEFAULT_reset_a0 $end
     $var wire  1 S( DEFAULT_reset_a1 $end
     $var wire 257 }) LFSR_POLY [256:0] $end
     $var wire 32 u) LFSR_WIDTH [31:0] $end
     $var wire 257 g* SEED [256:0] $end
     $var wire 32 u) WIDTH [31:0] $end
     $var wire  1 E) clk $end
     $var wire 257 S$ rand_vect [256:0] $end
     $var wire  1 C$ reset $end
    $upscope $end
    $scope module unnamedblk1 $end
     $var wire 32 Y' fl [31:0] $end
    $upscope $end
    $scope module unnamedblk2 $end
     $var wire 32 a' fl [31:0] $end
    $upscope $end
    $scope module unnamedblk3 $end
     $var wire 32 m) fl [31:0] $end
    $upscope $end
    $scope module unnamedblk4 $end
     $var wire 32 m) fl [31:0] $end
    $upscope $end
   $upscope $end
  $upscope $end
 $upscope $end
$enddefinitions $end


#0
0#
0+
03
0;
b000 C
b000 K
b00 S
b000 [
b000 c
b00 k
0s
b000 {
0%!
0&!
0'!
0=!
0E!
0M!
0U!
0]!
0e!
0m!
0u!
0}!
0'"
0/"
07"
0?"
0@"
0A"
0W"
0X"
0Y"
0o"
0w"
0!#
0)#
01#
09#
0A#
0I#
0Q#
0Y#
0a#
0i#
0q#
0y#
0#$
b00 +$
03$
0;$
0C$
b00000000000000000000000000000000 K$
b00000000000000000000000000000000000000000000000000000000000000000000000000000000000000000000000000000000000000000000000000000000000000000000000000000000000000000000000000000000000000000000000000000000000000000000000000000000000000000000000000000000000000000 S$
b00000000000000000000000000000000000000000000000000000000000000000000000000000000000000000000000000000000000000000000000000000000000000000000000000000000000000000000000000000000000000000000000000000000000000000000000000000000000000000000000000000000000000000000000000000000000000000000000000000000000000000000000000000000 =%
b000 /&
b000 7&
b000 ?&
b000 G&
b00 O&
b00 W&
b000 _&
0g&
b00 o&
b000 w&
b000 !'
b00 )'
01'
19'
0A'
b00 I'
0Q'
b00000000000000000000000000000000 Y'
b00000000000000000000000000000000 a'
0i'
0q'
0y'
0#(
0+(
03(
0;(
0C(
0K(
0S(
b00000000000000000000000000000000000000000000000000000000000000000000000000000000000000000000000000000000000000000000000000000000000000000000000000000000000000000000000000000000000000000000000000000000000000000000000000000000000000000000000000000000000000000 [(
1E)
1M)
0U)
0])
0e)
b00000000000000000000000000000011 m)
b00000000000000000000000100000001 u)
b00000000000000000000000000000000000000000000000000000000000000000000000000000000000000000000000000000000000000000000000000000000000000000000000000000000000000000000000000000000000000000000000000000000000000000000000000000000000000000000000000000000011000101 })
b00111000101100011111000010110100001110001001111010101010000110001011001101000010011100001001100100101110011011000010010000100100011110011000001001000101101000110011101101000011101000110010101000000110001000101111110000110010000000100111001000110100001001010 g*
#1
0E)
#2
b001 c
1C$
b00000000000000000000000000000001 K$
09'
1A'
b00000000000000000000000000000011 Y'
b00000000000000000000000000000011 a'
1E)
#3
0E)
#4
b001 G&
b001 !'
0A'
1S(
b00111000101100011111000010110100001110001001111010101010000110001011001101000010011100001001100100101110011011000010010000100100011110011000001001000101101000110011101101000011101000110010101000000110001000101111110000110010000000100111001000110100001001010 [(
1E)
#5
0E)
#6
b00111000101100011111000010110100001110001001111010101010000110001011001101000010011100001001100100101110011011000010010000100100011110011000001001000101101000110011101101000011101000110010101000000110001000101111110000110010000000100111001000110100001001010 S$
b00011000100010111111000011001000000010011100100011010000100101000111000101100011111000010110100001110001001111010101010000110001011001101000010011100001001100100101110011011000010010000100100011110011000001001000101101000110011101101000011101000110010101000000110001000101111110000110010000000100111001000110100001001010 =%
1E)
#7
0E)
#8
1E)
#9
0E)
0M)
#10
0C$
1E)
#11
0E)
#12
b00000000000000000000000000000010 K$
0S(
b01110001011000111110000101101000011100010011110101010100001100010110011010000100111000010011001001011100110110000100100001001000111100110000010010001011010001100111011010000111010001100101010000001100010001011111100001100100000001001110010001101000010010100 [(
1E)
#13
0E)
#14
b00000000000000000000000000000011 K$
b01110001011000111110000101101000011100010011110101010100001100010110011010000100111000010011001001011100110110000100100001001000111100110000010010001011010001100111011010000111010001100101010000001100010001011111100001100100000001001110010001101000010010100 S$
b00110001000101111110000110010000000100111001000110100001001010001110001011000111110000101101000011100010011110101010100001100010110011010000100111000010011001001011100110110000100100001001000111100110000010010001011010001100111011010000111010001100101010000001100010001011111100001100100000001001110010001101000010010100 =%
b11100010110001111100001011010000111000100111101010101000011000101100110100001001110000100110010010111001101100001001000010010001111001100000100100010110100011001110110100001110100011001010100000011000100010111111000011001000000010011100100011010000100101000 [(
1E)
#15
0E)
#16
b00000000000000000000000000000100 K$
b11100010110001111100001011010000111000100111101010101000011000101100110100001001110000100110010010111001101100001001000010010001111001100000100100010110100011001110110100001110100011001010100000011000100010111111000011001000000010011100100011010000100101000 S$
b01100010001011111100001100100000001001110010001101000010010100011100010110001111100001011010000111000100111101010101000011000101100110100001001110000100110010010111001101100001001000010010001111001100000100100010110100011001110110100001110100011001010100000011000100010111111000011001000000010011100100011010000100101000 =%
b11000101100011111000010110100001110001001111010101010000110001011001101000010011100001001100100101110011011000010010000100100011110011000001001000101101000110011101101000011101000110010101000000110001000101111110000110010000000100111001000110100001010010101 [(
1E)
#17
0E)
#18
b00000000000000000000000000000101 K$
b11000101100011111000010110100001110001001111010101010000110001011001101000010011100001001100100101110011011000010010000100100011110011000001001000101101000110011101101000011101000110010101000000110001000101111110000110010000000100111001000110100001010010101 S$
b11000100010111111000011001000000010011100100011010000101001010111000101100011111000010110100001110001001111010101010000110001011001101000010011100001001100100101110011011000010010000100100011110011000001001000101101000110011101101000011101000110010101000000110001000101111110000110010000000100111001000110100001010010101 =%
b10001011000111110000101101000011100010011110101010100001100010110011010000100111000010011001001011100110110000100100001001000111100110000010010001011010001100111011010000111010001100101010000001100010001011111100001100100000001001110010001101000010111101111 [(
1E)
#19
0E)
#20
b10 k
b010 {
1u!
1I#
b00000000000000000000000000000110 K$
b10001011000111110000101101000011100010011110101010100001100010110011010000100111000010011001001011100110110000100100001001000111100110000010010001011010001100111011010000111010001100101010000001100010001011111100001100100000001001110010001101000010111101111 S$
b10001000101111110000110010000000100111001000110100001011110111110001011000111110000101101000011100010011110101010100001100010110011010000100111000010011001001011100110110000100100001001000111100110000010010001011010001100111011010000111010001100101010000001100010001011111100001100100000001001110010001101000010111101111 =%
b010 /&
b00010110001111100001011010000111000100111101010101000011000101100110100001001110000100110010010111001101100001001000010010001111001100000100100010110100011001110110100001110100011001010100000011000100010111111000011001000000010011100100011010000101100011011 [(
1E)
#21
0E)
#22
1#
1;
b010 c
b000 {
1&!
1]!
0u!
1?"
1@"
1Y"
1)#
1Q#
1#$
b01 +$
1;$
b00000000000000000000000000000111 K$
b00010110001111100001011010000111000100111101010101000011000101100110100001001110000100110010010111001101100001001000010010001111001100000100100010110100011001110110100001110100011001010100000011000100010111111000011001000000010011100100011010000101100011011 S$
b00010001011111100001100100000001001110010001101000010110001101100010110001111100001011010000111000100111101010101000011000101100110100001001110000100110010010111001101100001001000010010001111001100000100100010110100011001110110100001110100011001010100000011000100010111111000011001000000010011100100011010000101100011011 =%
b000 /&
b10 O&
b10 )'
13(
b00101100011111000010110100001110001001111010101010000110001011001101000010011100001001100100101110011011000010010000100100011110011000001001000101101000110011101101000011101000110010101000000110001000101111110000110010000000100111001000110100001011000110110 [(
1E)
#23
0E)
#24
b001 K
b001 [
b100 c
b00 k
1M!
1w"
0I#
b10 +$
b00000000000000000000000000001000 K$
b00101100011111000010110100001110001001111010101010000110001011001101000010011100001001100100101110011011000010010000100100011110011000001001000101101000110011101101000011101000110010101000000110001000101111110000110010000000100111001000110100001011000110110 S$
b00100010111111000011001000000010011100100011010000101100011011000101100011111000010110100001110001001111010101010000110001011001101000010011100001001100100101110011011000010010000100100011110011000001001000101101000110011101101000011101000110010101000000110001000101111110000110010000000100111001000110100001011000110110 =%
b001 ?&
b010 G&
b010 !'
b01 I'
b01011000111110000101101000011100010011110101010100001100010110011010000100111000010011001001011100110110000100100001001000111100110000010010001011010001100111011010000111010001100101010000001100010001011111100001100100000001001110010001101000010110001101100 [(
1E)
#25
0E)
#26
0#
1+
13
0;
b010 K
b010 c
1s
1%!
0&!
1=!
0M!
0]!
1m!
0?"
0@"
1X"
0)#
0Q#
1Y#
b01 +$
13$
0;$
b00000000000000000000000000001001 K$
b01011000111110000101101000011100010011110101010100001100010110011010000100111000010011001001011100110110000100100001001000111100110000010010001011010001100111011010000111010001100101010000001100010001011111100001100100000001001110010001101000010110001101100 S$
b01000101111110000110010000000100111001000110100001011000110110001011000111110000101101000011100010011110101010100001100010110011010000100111000010011001001011100110110000100100001001000111100110000010010001011010001100111011010000111010001100101010000001100010001011111100001100100000001001110010001101000010110001101100 =%
b010 ?&
b100 G&
b00 O&
b001 _&
b001 w&
b100 !'
b00 )'
b10 I'
1q'
03(
b10110001111100001011010000111000100111101010101000011000101100110100001001110000100110010010111001101100001001000010010001111001100000100100010110100011001110110100001110100011001010100000011000100010111111000011001000000010011100100011010000101100011011000 [(
1E)
#27
0E)
#28
b100 K
b100 [
b001 c
0m!
1/"
0w"
1i#
b00 +$
b00000000000000000000000000001010 K$
b10110001111100001011010000111000100111101010101000011000101100110100001001110000100110010010111001101100001001000010010001111001100000100100010110100011001110110100001110100011001010100000011000100010111111000011001000000010011100100011010000101100011011000 S$
b10001011111100001100100000001001110010001101000010110001101100010110001111100001011010000111000100111101010101000011000101100110100001001110000100110010010111001101100001001000010010001111001100000100100010110100011001110110100001110100011001010100000011000100010111111000011001000000010011100100011010000101100011011000 =%
b100 ?&
b010 G&
1g&
b010 !'
11'
b01 I'
1Q'
b01100011111000010110100001110001001111010101010000110001011001101000010011100001001100100101110011011000010010000100100011110011000001001000101101000110011101101000011101000110010101000000110001000101111110000110010000000100111001000110100001011000101110101 [(
1E)
#29
0E)
#30
1#
0+
03
1;
b000 K
b010 c
0s
0%!
1'!
0=!
1}!
0/"
1?"
1@"
0X"
0Y"
1)#
1Q#
0Y#
0#$
b01 +$
03$
1;$
b00000000000000000000000000001011 K$
b01100011111000010110100001110001001111010101010000110001011001101000010011100001001100100101110011011000010010000100100011110011000001001000101101000110011101101000011101000110010101000000110001000101111110000110010000000100111001000110100001011000101110101 S$
b00010111111000011001000000010011100100011010000101100010111010101100011111000010110100001110001001111010101010000110001011001101000010011100001001100100101110011011000010010000100100011110011000001001000101101000110011101101000011101000110010101000000110001000101111110000110010000000100111001000110100001011000101110101 =%
b000 ?&
b001 G&
b100 _&
b100 w&
b001 !'
b00 I'
0q'
1C(
b11000111110000101101000011100010011110101010100001100010110011010000100111000010011001001011100110110000100100001001000111100110000010010001011010001100111011010000111010001100101010000001100010001011111100001100100000001001110010001101000010110001011101010 [(
1E)
#31
0E)
#32
b010 C
b01 S
b000 [
b100 c
1e!
19#
0i#
b10 +$
b00000000000000000000000000001100 K$
b11000111110000101101000011100010011110101010100001100010110011010000100111000010011001001011100110110000100100001001000111100110000010010001011010001100111011010000111010001100101010000001100010001011111100001100100000001001110010001101000010110001011101010 S$
b00101111110000110010000000100111001000110100001011000101110101011000111110000101101000011100010011110101010100001100010110011010000100111000010011001001011100110110000100100001001000111100110000010010001011010001100111011010000111010001100101010000001100010001011111100001100100000001001110010001101000010110001011101010 =%
b010 7&
b010 G&
0g&
b010 !'
01'
b01 I'
0Q'
b10001111100001011010000111000100111101010101000011000101100110100001001110000100110010010111001101100001001000010010001111001100000100100010110100011001110110100001110100011001010100000011000100010111111000011001000000010011100100011010000101100010100010001 [(
1E)
#33
0E)
#34
0#
1+
13
0;
b100 C
b11 S
b010 c
1s
1&!
0'!
1]!
0e!
0}!
1'"
0@"
1X"
1Y"
0Q#
1Y#
1a#
1#$
b01 +$
13$
0;$
b00000000000000000000000000001101 K$
b10001111100001011010000111000100111101010101000011000101100110100001001110000100110010010111001101100001001000010010001111001100000100100010110100011001110110100001110100011001010100000011000100010111111000011001000000010011100100011010000101100010100010001 S$
b01011111100001100100000001001110010001101000010110001010001000110001111100001011010000111000100111101010101000011000101100110100001001110000100110010010111001101100001001000010010001111001100000100100010110100011001110110100001110100011001010100000011000100010111111000011001000000010011100100011010000101100010100010001 =%
b100 7&
b100 G&
b01 W&
b000 _&
b01 o&
b000 w&
b100 !'
b10 I'
1#(
0C(
b00011111000010110100001110001001111010101010000110001011001101000010011100001001100100101110011011000010010000100100011110011000001001000101101000110011101101000011101000110010101000000110001000101111110000110010000000100111001000110100001011000101011100111 [(
1E)
#35
0E)
#36
1#
1;
b000 C
b10 S
b001 c
1'!
1}!
0'"
1@"
09#
1Q#
b00 +$
b00000000000000000000000000001110 K$
b00011111000010110100001110001001111010101010000110001011001101000010011100001001100100101110011011000010010000100100011110011000001001000101101000110011101101000011101000110010101000000110001000101111110000110010000000100111001000110100001011000101011100111 S$
b10111111000011001000000010011100100011010000101100010101110011100011111000010110100001110001001111010101010000110001011001101000010011100001001100100101110011011000010010000100100011110011000001001000101101000110011101101000011101000110010101000000110001000101111110000110010000000100111001000110100001011000101011100111 =%
b000 7&
b010 G&
b11 W&
1g&
b11 o&
b010 !'
11'
b01 I'
1Q'
1;(
b00111110000101101000011100010011110101010100001100010110011010000100111000010011001001011100110110000100100001001000111100110000010010001011010001100111011010000111010001100101010000001100010001011111100001100100000001001110010001101000010110001010111001110 [(
1E)
#37
0E)
#38
0+
03
b001 K
b001 [
b010 c
b10 k
0s
b010 {
0&!
1M!
0]!
1u!
0X"
1w"
1I#
0Y#
b01 +$
03$
1;$
b00000000000000000000000000001111 K$
b00111110000101101000011100010011110101010100001100010110011010000100111000010011001001011100110110000100100001001000111100110000010010001011010001100111011010000111010001100101010000001100010001011111100001100100000001001110010001101000010110001010111001110 S$
b01111110000110010000000100111001000110100001011000101011100111000111110000101101000011100010011110101010100001100010110011010000100111000010011001001011100110110000100100001001000111100110000010010001011010001100111011010000111010001100101010000001100010001011111100001100100000001001110010001101000010110001010111001110 =%
b010 /&
b001 ?&
b001 G&
b10 W&
b10 o&
b001 !'
b00 I'
0#(
b01111100001011010000111000100111101010101000011000101100110100001001110000100110010010111001101100001001000010010001111001100000100100010110100011001110110100001110100011001010100000011000100010111111000011001000000010011100100011010000101100010101110011100 [(
1E)
#39
0E)
#40
1+
13
b010 K
b011 [
b100 c
b00 k
b000 {
1%!
1&!
1=!
0M!
1]!
1m!
0u!
1X"
1A#
0I#
1Y#
b10 +$
b00000000000000000000000000010000 K$
b01111100001011010000111000100111101010101000011000101100110100001001110000100110010010111001101100001001000010010001111001100000100100010110100011001110110100001110100011001010100000011000100010111111000011001000000010011100100011010000101100010101110011100 S$
b11111100001100100000001001110010001101000010110001010111001110001111100001011010000111000100111101010101000011000101100110100001001110000100110010010111001101100001001000010010001111001100000100100010110100011001110110100001110100011001010100000011000100010111111000011001000000010011100100011010000101100010101110011100 =%
b000 /&
b010 ?&
b010 G&
b10 O&
b001 _&
0g&
b001 w&
b010 !'
b10 )'
01'
b01 I'
0Q'
1q'
13(
b11111000010110100001110001001111010101010000110001011001101000010011100001001100100101110011011000010010000100100011110011000001001000101101000110011101101000011101000110010101000000110001000101111110000110010000000100111001000110100001011000101011100111000 [(
1E)
#41
0E)
#42
b100 K
b00 S
b101 [
b010 c
1s
0m!
1/"
0A#
0a#
1i#
b01 +$
13$
0;$
b00000000000000000000000000010001 K$
b11111000010110100001110001001111010101010000110001011001101000010011100001001100100101110011011000010010000100100011110011000001001000101101000110011101101000011101000110010101000000110001000101111110000110010000000100111001000110100001011000101011100111000 S$
b11111000011001000000010011100100011010000101100010101110011100011111000010110100001110001001111010101010000110001011001101000010011100001001100100101110011011000010010000100100011110011000001001000101101000110011101101000011101000110010101000000110001000101111110000110010000000100111001000110100001011000101011100111000 =%
b100 ?&
b100 G&
b00 O&
b011 _&
b011 w&
b100 !'
b00 )'
b10 I'
1+(
03(
b11110000101101000011100010011110101010100001100010110011010000100111000010011001001011100110110000100100001001000111100110000010010001011010001100111011010000111010001100101010000001100010001011111100001100100000001001110010001101000010110001010111010110101 [(
1E)
#43
0E)
#44
b000 K
b100 [
b001 c
0&!
0]!
0/"
0w"
b00 +$
b00000000000000000000000000010010 K$
b11110000101101000011100010011110101010100001100010110011010000100111000010011001001011100110110000100100001001000111100110000010010001011010001100111011010000111010001100101010000001100010001011111100001100100000001001110010001101000010110001010111010110101 S$
b11110000110010000000100111001000110100001011000101011101011010111110000101101000011100010011110101010100001100010110011010000100111000010011001001011100110110000100100001001000111100110000010010001011010001100111011010000111010001100101010000001100010001011111100001100100000001001110010001101000010110001010111010110101 =%
b000 ?&
b010 G&
b00 W&
b101 _&
1g&
b00 o&
b101 w&
b010 !'
11'
b01 I'
1Q'
0+(
0;(
1C(
b11100001011010000111000100111101010101000011000101100110100001001110000100110010010111001101100001001000010010001111001100000100100010110100011001110110100001110100011001010100000011000100010111111000011001000000010011100100011010000101100010101110110101111 [(
1E)
#45
0E)
#46
0+
03
b010 C
b100 K
b01 S
b010 c
0s
0%!
0=!
1e!
1/"
0X"
0Y"
19#
0Y#
0#$
b01 +$
03$
1;$
b00000000000000000000000000010011 K$
b11100001011010000111000100111101010101000011000101100110100001001110000100110010010111001101100001001000010010001111001100000100100010110100011001110110100001110100011001010100000011000100010111111000011001000000010011100100011010000101100010101110110101111 S$
b11100001100100000001001110010001101000010110001010111011010111111100001011010000111000100111101010101000011000101100110100001001110000100110010010111001101100001001000010010001111001100000100100010110100011001110110100001110100011001010100000011000100010111111000011001000000010011100100011010000101100010101110110101111 =%
b010 7&
b100 ?&
b001 G&
b100 _&
b100 w&
b001 !'
b00 I'
0q'
b11000010110100001110001001111010101010000110001011001101000010011100001001100100101110011011000010010000100100011110011000001001000101101000110011101101000011101000110010101000000110001000101111110000110010000000100111001000110100001011000101011101110011011 [(
1E)
#47
0E)
#48
1+
13
b100 C
b11 S
b000 [
b100 c
1&!
1]!
0e!
1'"
1X"
1Y"
1Y#
1a#
0i#
1#$
b10 +$
b00000000000000000000000000010100 K$
b11000010110100001110001001111010101010000110001011001101000010011100001001100100101110011011000010010000100100011110011000001001000101101000110011101101000011101000110010101000000110001000101111110000110010000000100111001000110100001011000101011101110011011 S$
b11000011001000000010011100100011010000101100010101110111001101111000010110100001110001001111010101010000110001011001101000010011100001001100100101110011011000010010000100100011110011000001001000101101000110011101101000011101000110010101000000110001000101111110000110010000000100111001000110100001011000101011101110011011 =%
b100 7&
b010 G&
b01 W&
0g&
b01 o&
b010 !'
01'
b01 I'
0Q'
1#(
b10000101101000011100010011110101010100001100010110011010000100111000010011001001011100110110000100100001001000111100110000010010001011010001100111011010000111010001100101010000001100010001011111100001100100000001001110010001101000010110001010111011111110011 [(
1E)
#49
0E)
#50
b010 C
b000 K
b01 S
b010 c
1s
1e!
0'"
0/"
0a#
b01 +$
13$
0;$
b00000000000000000000000000010101 K$
b10000101101000011100010011110101010100001100010110011010000100111000010011001001011100110110000100100001001000111100110000010010001011010001100111011010000111010001100101010000001100010001011111100001100100000001001110010001101000010110001010111011111110011 S$
b10000110010000000100111001000110100001011000101011101111111001110000101101000011100010011110101010100001100010110011010000100111000010011001001011100110110000100100001001000111100110000010010001011010001100111011010000111010001100101010000001100010001011111100001100100000001001110010001101000010110001010111011111110011 =%
b010 7&
b000 ?&
b100 G&
b11 W&
b000 _&
b11 o&
b000 w&
b100 !'
b10 I'
1;(
0C(
b00001011010000111000100111101010101000011000101100110100001001110000100110010010111001101100001001000010010001111001100000100100010110100011001110110100001110100011001010100000011000100010111111000011001000000010011100100011010000101100010101110111100100011 [(
1E)
#51
0E)
#52
0#
0;
b110 C
b001 K
b11 S
b001 c
b10 k
b010 {
0'!
1M!
1u!
0}!
1'"
0@"
1I#
0Q#
1a#
b00 +$
b00000000000000000000000000010110 K$
b00001011010000111000100111101010101000011000101100110100001001110000100110010010111001101100001001000010010001111001100000100100010110100011001110110100001110100011001010100000011000100010111111000011001000000010011100100011010000101100010101110111100100011 S$
b00001100100000001001110010001101000010110001010111011110010001100001011010000111000100111101010101000011000101100110100001001110000100110010010111001101100001001000010010001111001100000100100010110100011001110110100001110100011001010100000011000100010111111000011001000000010011100100011010000101100010101110111100100011 =%
b010 /&
b110 7&
b001 ?&
b010 G&
b01 W&
1g&
b01 o&
b010 !'
11'
b01 I'
1Q'
0;(
b00010110100001110001001111010101010000110001011001101000010011100001001100100101110011011000010010000100100011110011000001001000101101000110011101101000011101000110010101000000110001000101111110000110010000000100111001000110100001011000101011101111001000110 [(
1E)
#53
0E)
#54
1#
1;
b100 C
b010 K
b010 c
0s
b000 {
1'!
0M!
0e!
1m!
0u!
1}!
1@"
1Q#
b01 +$
03$
1;$
b00000000000000000000000000010111 K$
b00010110100001110001001111010101010000110001011001101000010011100001001100100101110011011000010010000100100011110011000001001000101101000110011101101000011101000110010101000000110001000101111110000110010000000100111001000110100001011000101011101111001000110 S$
b00011001000000010011100100011010000101100010101110111100100011000010110100001110001001111010101010000110001011001101000010011100001001100100101110011011000010010000100100011110011000001001000101101000110011101101000011101000110010101000000110001000101111110000110010000000100111001000110100001011000101011101111001000110 =%
b000 /&
b100 7&
b010 ?&
b001 G&
b10 O&
b11 W&
b11 o&
b001 !'
b10 )'
b00 I'
13(
1;(
b00101101000011100010011110101010100001100010110011010000100111000010011001001011100110110000100100001001000111100110000010010001011010001100111011010000111010001100101010000001100010001011111100001100100000001001110010001101000010110001010111011110010001100 [(
1E)
#55
0E)
