arithmetic/obj_dir/vlt_dump.vcd
$version Generated by VerilatedVcd $end
$date Sat Nov  7 07:02:39 2020
 $end
$timescale   1ps $end

 $scope module TOP $end
  $var wire  1 B clk $end
  $var wire  1 E failed $end
  $var wire  1 D passed $end
  $var wire  1 C reset_async $end
  $scope module makerchip $end
   $var wire  1 B clk $end
   $var wire 32 $ cyc_cnt [31:0] $end
   $var wire  1 E failed $end
   $var wire  1 D passed $end
   $var wire  1 # reset $end
   $var wire  1 C reset_async $end
   $scope module top $end
    $var wire  4 F L0_num1_a0 [3:0] $end
    $var wire  4 F L0_num2_a0 [3:0] $end
    $var wire  8 G L0_out_a0 [7:0] $end
    $var wire 257 % RW_rand_raw [256:0] $end
    $var wire 320 . RW_rand_vect [319:0] $end
    $var wire  1 B clk $end
    $var wire 32 $ cyc_cnt [31:0] $end
    $var wire  1 E failed $end
    $var wire  1 D passed $end
    $var wire  1 # reset $end
    $scope module DEBUG_SIGS $end
     $var wire  4 F @0$num1 [3:0] $end
     $var wire  4 F @0$num2 [3:0] $end
     $var wire  8 G @0$out [7:0] $end
    $upscope $end
    $scope module pseudo_rand $end
     $var wire 257 8 DEFAULT_lfsr_a1 [256:0] $end
     $var wire 257 % DEFAULT_lfsr_a2 [256:0] $end
     $var wire  1 # DEFAULT_reset_a0 $end
     $var wire  1 A DEFAULT_reset_a1 $end
     $var wire 257 I LFSR_POLY [256:0] $end
     $var wire 32 H LFSR_WIDTH [31:0] $end
     $var wire 257 R SEED [256:0] $end
     $var wire 32 H WIDTH [31:0] $end
     $var wire  1 B clk $end
     $var wire 257 % rand_vect [256:0] $end
     $var wire  1 # reset $end
    $upscope $end
   $upscope $end
  $upscope $end
 $upscope $end
$enddefinitions $end


#0
0#
b00000000000000000000000000000000 $
b00000000000000000000000000000000000000000000000000000000000000000000000000000000000000000000000000000000000000000000000000000000000000000000000000000000000000000000000000000000000000000000000000000000000000000000000000000000000000000000000000000000000000000 %
b00000000000000000000000000000000000000000000000000000000000000000000000000000000000000000000000000000000000000000000000000000000000000000000000000000000000000000000000000000000000000000000000000000000000000000000000000000000000000000000000000000000000000000000000000000000000000000000000000000000000000000000000000000000 .
b00000000000000000000000000000000000000000000000000000000000000000000000000000000000000000000000000000000000000000000000000000000000000000000000000000000000000000000000000000000000000000000000000000000000000000000000000000000000000000000000000000000000000000 8
0A
1B
1C
0D
0E
b0000 F
b11111111 G
b00000000000000000000000100000001 H
b00000000000000000000000000000000000000000000000000000000000000000000000000000000000000000000000000000000000000000000000000000000000000000000000000000000000000000000000000000000000000000000000000000000000000000000000000000000000000000000000000000000011000101 I
b00111000101100011111000010110100001110001001111010101010000110001011001101000010011100001001100100101110011011000010010000100100011110011000001001000101101000110011101101000011101000110010101000000110001000101111110000110010000000100111001000110100001001010 R
#1
0B
#2
1#
b00000000000000000000000000000001 $
1B
#3
0B
#4
b00111000101100011111000010110100001110001001111010101010000110001011001101000010011100001001100100101110011011000010010000100100011110011000001001000101101000110011101101000011101000110010101000000110001000101111110000110010000000100111001000110100001001010 8
1A
1B
#5
0B
#6
b00111000101100011111000010110100001110001001111010101010000110001011001101000010011100001001100100101110011011000010010000100100011110011000001001000101101000110011101101000011101000110010101000000110001000101111110000110010000000100111001000110100001001010 %
b00011000100010111111000011001000000010011100100011010000100101000111000101100011111000010110100001110001001111010101010000110001011001101000010011100001001100100101110011011000010010000100100011110011000001001000101101000110011101101000011101000110010101000000110001000101111110000110010000000100111001000110100001001010 .
1B
#7
0B
#8
1B
#9
0B
0C
#10
0#
1B
#11
0B
#12
b00000000000000000000000000000010 $
b01110001011000111110000101101000011100010011110101010100001100010110011010000100111000010011001001011100110110000100100001001000111100110000010010001011010001100111011010000111010001100101010000001100010001011111100001100100000001001110010001101000010010100 8
0A
1B
#13
0B
#14
b00000000000000000000000000000011 $
b01110001011000111110000101101000011100010011110101010100001100010110011010000100111000010011001001011100110110000100100001001000111100110000010010001011010001100111011010000111010001100101010000001100010001011111100001100100000001001110010001101000010010100 %
b00110001000101111110000110010000000100111001000110100001001010001110001011000111110000101101000011100010011110101010100001100010110011010000100111000010011001001011100110110000100100001001000111100110000010010001011010001100111011010000111010001100101010000001100010001011111100001100100000001001110010001101000010010100 .
b11100010110001111100001011010000111000100111101010101000011000101100110100001001110000100110010010111001101100001001000010010001111001100000100100010110100011001110110100001110100011001010100000011000100010111111000011001000000010011100100011010000100101000 8
1B
#15
0B
#16
b00000000000000000000000000000100 $
b11100010110001111100001011010000111000100111101010101000011000101100110100001001110000100110010010111001101100001001000010010001111001100000100100010110100011001110110100001110100011001010100000011000100010111111000011001000000010011100100011010000100101000 %
b01100010001011111100001100100000001001110010001101000010010100011100010110001111100001011010000111000100111101010101000011000101100110100001001110000100110010010111001101100001001000010010001111001100000100100010110100011001110110100001110100011001010100000011000100010111111000011001000000010011100100011010000100101000 .
b11000101100011111000010110100001110001001111010101010000110001011001101000010011100001001100100101110011011000010010000100100011110011000001001000101101000110011101101000011101000110010101000000110001000101111110000110010000000100111001000110100001010010101 8
1B
#17
0B
#18
b00000000000000000000000000000101 $
b11000101100011111000010110100001110001001111010101010000110001011001101000010011100001001100100101110011011000010010000100100011110011000001001000101101000110011101101000011101000110010101000000110001000101111110000110010000000100111001000110100001010010101 %
b11000100010111111000011001000000010011100100011010000101001010111000101100011111000010110100001110001001111010101010000110001011001101000010011100001001100100101110011011000010010000100100011110011000001001000101101000110011101101000011101000110010101000000110001000101111110000110010000000100111001000110100001010010101 .
b10001011000111110000101101000011100010011110101010100001100010110011010000100111000010011001001011100110110000100100001001000111100110000010010001011010001100111011010000111010001100101010000001100010001011111100001100100000001001110010001101000010111101111 8
1B
#19
0B
#20
b00000000000000000000000000000110 $
b10001011000111110000101101000011100010011110101010100001100010110011010000100111000010011001001011100110110000100100001001000111100110000010010001011010001100111011010000111010001100101010000001100010001011111100001100100000001001110010001101000010111101111 %
b10001000101111110000110010000000100111001000110100001011110111110001011000111110000101101000011100010011110101010100001100010110011010000100111000010011001001011100110110000100100001001000111100110000010010001011010001100111011010000111010001100101010000001100010001011111100001100100000001001110010001101000010111101111 .
b00010110001111100001011010000111000100111101010101000011000101100110100001001110000100110010010111001101100001001000010010001111001100000100100010110100011001110110100001110100011001010100000011000100010111111000011001000000010011100100011010000101100011011 8
1B
#21
0B
#22
b00000000000000000000000000000111 $
b00010110001111100001011010000111000100111101010101000011000101100110100001001110000100110010010111001101100001001000010010001111001100000100100010110100011001110110100001110100011001010100000011000100010111111000011001000000010011100100011010000101100011011 %
b00010001011111100001100100000001001110010001101000010110001101100010110001111100001011010000111000100111101010101000011000101100110100001001110000100110010010111001101100001001000010010001111001100000100100010110100011001110110100001110100011001010100000011000100010111111000011001000000010011100100011010000101100011011 .
b00101100011111000010110100001110001001111010101010000110001011001101000010011100001001100100101110011011000010010000100100011110011000001001000101101000110011101101000011101000110010101000000110001000101111110000110010000000100111001000110100001011000110110 8
1B
#23
0B
#24
b00000000000000000000000000001000 $
b00101100011111000010110100001110001001111010101010000110001011001101000010011100001001100100101110011011000010010000100100011110011000001001000101101000110011101101000011101000110010101000000110001000101111110000110010000000100111001000110100001011000110110 %
b00100010111111000011001000000010011100100011010000101100011011000101100011111000010110100001110001001111010101010000110001011001101000010011100001001100100101110011011000010010000100100011110011000001001000101101000110011101101000011101000110010101000000110001000101111110000110010000000100111001000110100001011000110110 .
b01011000111110000101101000011100010011110101010100001100010110011010000100111000010011001001011100110110000100100001001000111100110000010010001011010001100111011010000111010001100101010000001100010001011111100001100100000001001110010001101000010110001101100 8
1B
#25
0B
#26
b00000000000000000000000000001001 $
b01011000111110000101101000011100010011110101010100001100010110011010000100111000010011001001011100110110000100100001001000111100110000010010001011010001100111011010000111010001100101010000001100010001011111100001100100000001001110010001101000010110001101100 %
b01000101111110000110010000000100111001000110100001011000110110001011000111110000101101000011100010011110101010100001100010110011010000100111000010011001001011100110110000100100001001000111100110000010010001011010001100111011010000111010001100101010000001100010001011111100001100100000001001110010001101000010110001101100 .
b10110001111100001011010000111000100111101010101000011000101100110100001001110000100110010010111001101100001001000010010001111001100000100100010110100011001110110100001110100011001010100000011000100010111111000011001000000010011100100011010000101100011011000 8
1B
#27
0B
#28
b00000000000000000000000000001010 $
b10110001111100001011010000111000100111101010101000011000101100110100001001110000100110010010111001101100001001000010010001111001100000100100010110100011001110110100001110100011001010100000011000100010111111000011001000000010011100100011010000101100011011000 %
b10001011111100001100100000001001110010001101000010110001101100010110001111100001011010000111000100111101010101000011000101100110100001001110000100110010010111001101100001001000010010001111001100000100100010110100011001110110100001110100011001010100000011000100010111111000011001000000010011100100011010000101100011011000 .
b01100011111000010110100001110001001111010101010000110001011001101000010011100001001100100101110011011000010010000100100011110011000001001000101101000110011101101000011101000110010101000000110001000101111110000110010000000100111001000110100001011000101110101 8
1B
#29
0B
#30
b00000000000000000000000000001011 $
b01100011111000010110100001110001001111010101010000110001011001101000010011100001001100100101110011011000010010000100100011110011000001001000101101000110011101101000011101000110010101000000110001000101111110000110010000000100111001000110100001011000101110101 %
b00010111111000011001000000010011100100011010000101100010111010101100011111000010110100001110001001111010101010000110001011001101000010011100001001100100101110011011000010010000100100011110011000001001000101101000110011101101000011101000110010101000000110001000101111110000110010000000100111001000110100001011000101110101 .
b11000111110000101101000011100010011110101010100001100010110011010000100111000010011001001011100110110000100100001001000111100110000010010001011010001100111011010000111010001100101010000001100010001011111100001100100000001001110010001101000010110001011101010 8
1B
#31
0B
#32
b00000000000000000000000000001100 $
b11000111110000101101000011100010011110101010100001100010110011010000100111000010011001001011100110110000100100001001000111100110000010010001011010001100111011010000111010001100101010000001100010001011111100001100100000001001110010001101000010110001011101010 %
b00101111110000110010000000100111001000110100001011000101110101011000111110000101101000011100010011110101010100001100010110011010000100111000010011001001011100110110000100100001001000111100110000010010001011010001100111011010000111010001100101010000001100010001011111100001100100000001001110010001101000010110001011101010 .
b10001111100001011010000111000100111101010101000011000101100110100001001110000100110010010111001101100001001000010010001111001100000100100010110100011001110110100001110100011001010100000011000100010111111000011001000000010011100100011010000101100010100010001 8
1B
#33
0B
#34
b00000000000000000000000000001101 $
b10001111100001011010000111000100111101010101000011000101100110100001001110000100110010010111001101100001001000010010001111001100000100100010110100011001110110100001110100011001010100000011000100010111111000011001000000010011100100011010000101100010100010001 %
b01011111100001100100000001001110010001101000010110001010001000110001111100001011010000111000100111101010101000011000101100110100001001110000100110010010111001101100001001000010010001111001100000100100010110100011001110110100001110100011001010100000011000100010111111000011001000000010011100100011010000101100010100010001 .
b00011111000010110100001110001001111010101010000110001011001101000010011100001001100100101110011011000010010000100100011110011000001001000101101000110011101101000011101000110010101000000110001000101111110000110010000000100111001000110100001011000101011100111 8
1B
#35
0B
#36
b00000000000000000000000000001110 $
b00011111000010110100001110001001111010101010000110001011001101000010011100001001100100101110011011000010010000100100011110011000001001000101101000110011101101000011101000110010101000000110001000101111110000110010000000100111001000110100001011000101011100111 %
b10111111000011001000000010011100100011010000101100010101110011100011111000010110100001110001001111010101010000110001011001101000010011100001001100100101110011011000010010000100100011110011000001001000101101000110011101101000011101000110010101000000110001000101111110000110010000000100111001000110100001011000101011100111 .
b00111110000101101000011100010011110101010100001100010110011010000100111000010011001001011100110110000100100001001000111100110000010010001011010001100111011010000111010001100101010000001100010001011111100001100100000001001110010001101000010110001010111001110 8
1B
#37
0B
#38
b00000000000000000000000000001111 $
b00111110000101101000011100010011110101010100001100010110011010000100111000010011001001011100110110000100100001001000111100110000010010001011010001100111011010000111010001100101010000001100010001011111100001100100000001001110010001101000010110001010111001110 %
b01111110000110010000000100111001000110100001011000101011100111000111110000101101000011100010011110101010100001100010110011010000100111000010011001001011100110110000100100001001000111100110000010010001011010001100111011010000111010001100101010000001100010001011111100001100100000001001110010001101000010110001010111001110 .
b01111100001011010000111000100111101010101000011000101100110100001001110000100110010010111001101100001001000010010001111001100000100100010110100011001110110100001110100011001010100000011000100010111111000011001000000010011100100011010000101100010101110011100 8
1B
#39
0B
#40
b00000000000000000000000000010000 $
b01111100001011010000111000100111101010101000011000101100110100001001110000100110010010111001101100001001000010010001111001100000100100010110100011001110110100001110100011001010100000011000100010111111000011001000000010011100100011010000101100010101110011100 %
b11111100001100100000001001110010001101000010110001010111001110001111100001011010000111000100111101010101000011000101100110100001001110000100110010010111001101100001001000010010001111001100000100100010110100011001110110100001110100011001010100000011000100010111111000011001000000010011100100011010000101100010101110011100 .
b11111000010110100001110001001111010101010000110001011001101000010011100001001100100101110011011000010010000100100011110011000001001000101101000110011101101000011101000110010101000000110001000101111110000110010000000100111001000110100001011000101011100111000 8
1B
#41
0B
#42
b00000000000000000000000000010001 $
b11111000010110100001110001001111010101010000110001011001101000010011100001001100100101110011011000010010000100100011110011000001001000101101000110011101101000011101000110010101000000110001000101111110000110010000000100111001000110100001011000101011100111000 %
b11111000011001000000010011100100011010000101100010101110011100011111000010110100001110001001111010101010000110001011001101000010011100001001100100101110011011000010010000100100011110011000001001000101101000110011101101000011101000110010101000000110001000101111110000110010000000100111001000110100001011000101011100111000 .
b11110000101101000011100010011110101010100001100010110011010000100111000010011001001011100110110000100100001001000111100110000010010001011010001100111011010000111010001100101010000001100010001011111100001100100000001001110010001101000010110001010111010110101 8
1B
#43
0B
#44
b00000000000000000000000000010010 $
b11110000101101000011100010011110101010100001100010110011010000100111000010011001001011100110110000100100001001000111100110000010010001011010001100111011010000111010001100101010000001100010001011111100001100100000001001110010001101000010110001010111010110101 %
b11110000110010000000100111001000110100001011000101011101011010111110000101101000011100010011110101010100001100010110011010000100111000010011001001011100110110000100100001001000111100110000010010001011010001100111011010000111010001100101010000001100010001011111100001100100000001001110010001101000010110001010111010110101 .
b11100001011010000111000100111101010101000011000101100110100001001110000100110010010111001101100001001000010010001111001100000100100010110100011001110110100001110100011001010100000011000100010111111000011001000000010011100100011010000101100010101110110101111 8
1B
#45
0B
#46
b00000000000000000000000000010011 $
b11100001011010000111000100111101010101000011000101100110100001001110000100110010010111001101100001001000010010001111001100000100100010110100011001110110100001110100011001010100000011000100010111111000011001000000010011100100011010000101100010101110110101111 %
b11100001100100000001001110010001101000010110001010111011010111111100001011010000111000100111101010101000011000101100110100001001110000100110010010111001101100001001000010010001111001100000100100010110100011001110110100001110100011001010100000011000100010111111000011001000000010011100100011010000101100010101110110101111 .
b11000010110100001110001001111010101010000110001011001101000010011100001001100100101110011011000010010000100100011110011000001001000101101000110011101101000011101000110010101000000110001000101111110000110010000000100111001000110100001011000101011101110011011 8
1B
#47
0B
#48
b00000000000000000000000000010100 $
b11000010110100001110001001111010101010000110001011001101000010011100001001100100101110011011000010010000100100011110011000001001000101101000110011101101000011101000110010101000000110001000101111110000110010000000100111001000110100001011000101011101110011011 %
b11000011001000000010011100100011010000101100010101110111001101111000010110100001110001001111010101010000110001011001101000010011100001001100100101110011011000010010000100100011110011000001001000101101000110011101101000011101000110010101000000110001000101111110000110010000000100111001000110100001011000101011101110011011 .
b10000101101000011100010011110101010100001100010110011010000100111000010011001001011100110110000100100001001000111100110000010010001011010001100111011010000111010001100101010000001100010001011111100001100100000001001110010001101000010110001010111011111110011 8
1B
#49
0B
#50
b00000000000000000000000000010101 $
b10000101101000011100010011110101010100001100010110011010000100111000010011001001011100110110000100100001001000111100110000010010001011010001100111011010000111010001100101010000001100010001011111100001100100000001001110010001101000010110001010111011111110011 %
b10000110010000000100111001000110100001011000101011101111111001110000101101000011100010011110101010100001100010110011010000100111000010011001001011100110110000100100001001000111100110000010010001011010001100111011010000111010001100101010000001100010001011111100001100100000001001110010001101000010110001010111011111110011 .
b00001011010000111000100111101010101000011000101100110100001001110000100110010010111001101100001001000010010001111001100000100100010110100011001110110100001110100011001010100000011000100010111111000011001000000010011100100011010000101100010101110111100100011 8
1B
#51
0B
#52
b00000000000000000000000000010110 $
b00001011010000111000100111101010101000011000101100110100001001110000100110010010111001101100001001000010010001111001100000100100010110100011001110110100001110100011001010100000011000100010111111000011001000000010011100100011010000101100010101110111100100011 %
b00001100100000001001110010001101000010110001010111011110010001100001011010000111000100111101010101000011000101100110100001001110000100110010010111001101100001001000010010001111001100000100100010110100011001110110100001110100011001010100000011000100010111111000011001000000010011100100011010000101100010101110111100100011 .
b00010110100001110001001111010101010000110001011001101000010011100001001100100101110011011000010010000100100011110011000001001000101101000110011101101000011101000110010101000000110001000101111110000110010000000100111001000110100001011000101011101111001000110 8
1B
#53
0B
#54
b00000000000000000000000000010111 $
b00010110100001110001001111010101010000110001011001101000010011100001001100100101110011011000010010000100100011110011000001001000101101000110011101101000011101000110010101000000110001000101111110000110010000000100111001000110100001011000101011101111001000110 %
b00011001000000010011100100011010000101100010101110111100100011000010110100001110001001111010101010000110001011001101000010011100001001100100101110011011000010010000100100011110011000001001000101101000110011101101000011101000110010101000000110001000101111110000110010000000100111001000110100001011000101011101111001000110 .
b00101101000011100010011110101010100001100010110011010000100111000010011001001011100110110000100100001001000111100110000010010001011010001100111011010000111010001100101010000001100010001011111100001100100000001001110010001101000010110001010111011110010001100 8
1B
#55
0B
#56
b00000000000000000000000000011000 $
b00101101000011100010011110101010100001100010110011010000100111000010011001001011100110110000100100001001000111100110000010010001011010001100111011010000111010001100101010000001100010001011111100001100100000001001110010001101000010110001010111011110010001100 %
b00110010000000100111001000110100001011000101011101111001000110000101101000011100010011110101010100001100010110011010000100111000010011001001011100110110000100100001001000111100110000010010001011010001100111011010000111010001100101010000001100010001011111100001100100000001001110010001101000010110001010111011110010001100 .
b01011010000111000100111101010101000011000101100110100001001110000100110010010111001101100001001000010010001111001100000100100010110100011001110110100001110100011001010100000011000100010111111000011001000000010011100100011010000101100010101110111100100011000 8
1B
#57
0B
#58
b00000000000000000000000000011001 $
b01011010000111000100111101010101000011000101100110100001001110000100110010010111001101100001001000010010001111001100000100100010110100011001110110100001110100011001010100000011000100010111111000011001000000010011100100011010000101100010101110111100100011000 %
b01100100000001001110010001101000010110001010111011110010001100001011010000111000100111101010101000011000101100110100001001110000100110010010111001101100001001000010010001111001100000100100010110100011001110110100001110100011001010100000011000100010111111000011001000000010011100100011010000101100010101110111100100011000 .
b10110100001110001001111010101010000110001011001101000010011100001001100100101110011011000010010000100100011110011000001001000101101000110011101101000011101000110010101000000110001000101111110000110010000000100111001000110100001011000101011101111001000110000 8
1B
#59
0B
#60
b00000000000000000000000000011010 $
b10110100001110001001111010101010000110001011001101000010011100001001100100101110011011000010010000100100011110011000001001000101101000110011101101000011101000110010101000000110001000101111110000110010000000100111001000110100001011000101011101111001000110000 %
b11001000000010011100100011010000101100010101110111100100011000010110100001110001001111010101010000110001011001101000010011100001001100100101110011011000010010000100100011110011000001001000101101000110011101101000011101000110010101000000110001000101111110000110010000000100111001000110100001011000101011101111001000110000 .
b01101000011100010011110101010100001100010110011010000100111000010011001001011100110110000100100001001000111100110000010010001011010001100111011010000111010001100101010000001100010001011111100001100100000001001110010001101000010110001010111011110010010100101 8
1B
#61
0B
#62
b00000000000000000000000000011011 $
b01101000011100010011110101010100001100010110011010000100111000010011001001011100110110000100100001001000111100110000010010001011010001100111011010000111010001100101010000001100010001011111100001100100000001001110010001101000010110001010111011110010010100101 %
b10010000000100111001000110100001011000101011101111001001010010101101000011100010011110101010100001100010110011010000100111000010011001001011100110110000100100001001000111100110000010010001011010001100111011010000111010001100101010000001100010001011111100001100100000001001110010001101000010110001010111011110010010100101 .
b11010000111000100111101010101000011000101100110100001001110000100110010010111001101100001001000010010001111001100000100100010110100011001110110100001110100011001010100000011000100010111111000011001000000010011100100011010000101100010101110111100100101001010 8
1B
#63
0B
#64
b00000000000000000000000000011100 $
b11010000111000100111101010101000011000101100110100001001110000100110010010111001101100001001000010010001111001100000100100010110100011001110110100001110100011001010100000011000100010111111000011001000000010011100100011010000101100010101110111100100101001010 %
b00100000001001110010001101000010110001010111011110010010100101011010000111000100111101010101000011000101100110100001001110000100110010010111001101100001001000010010001111001100000100100010110100011001110110100001110100011001010100000011000100010111111000011001000000010011100100011010000101100010101110111100100101001010 .
b10100001110001001111010101010000110001011001101000010011100001001100100101110011011000010010000100100011110011000001001000101101000110011101101000011101000110010101000000110001000101111110000110010000000100111001000110100001011000101011101111001001001010001 8
1B
#65
0B
#66
b00000000000000000000000000011101 $
b10100001110001001111010101010000110001011001101000010011100001001100100101110011011000010010000100100011110011000001001000101101000110011101101000011101000110010101000000110001000101111110000110010000000100111001000110100001011000101011101111001001001010001 %
b01000000010011100100011010000101100010101110111100100100101000110100001110001001111010101010000110001011001101000010011100001001100100101110011011000010010000100100011110011000001001000101101000110011101101000011101000110010101000000110001000101111110000110010000000100111001000110100001011000101011101111001001001010001 .
b01000011100010011110101010100001100010110011010000100111000010011001001011100110110000100100001001000111100110000010010001011010001100111011010000111010001100101010000001100010001011111100001100100000001001110010001101000010110001010111011110010010001100111 8
1B
#67
0B
#68
b00000000000000000000000000011110 $
b01000011100010011110101010100001100010110011010000100111000010011001001011100110110000100100001001000111100110000010010001011010001100111011010000111010001100101010000001100010001011111100001100100000001001110010001101000010110001010111011110010010001100111 %
b10000000100111001000110100001011000101011101111001001000110011101000011100010011110101010100001100010110011010000100111000010011001001011100110110000100100001001000111100110000010010001011010001100111011010000111010001100101010000001100010001011111100001100100000001001110010001101000010110001010111011110010010001100111 .
b10000111000100111101010101000011000101100110100001001110000100110010010111001101100001001000010010001111001100000100100010110100011001110110100001110100011001010100000011000100010111111000011001000000010011100100011010000101100010101110111100100100011001110 8
1B
#69
0B
#70
b00000000000000000000000000011111 $
b10000111000100111101010101000011000101100110100001001110000100110010010111001101100001001000010010001111001100000100100010110100011001110110100001110100011001010100000011000100010111111000011001000000010011100100011010000101100010101110111100100100011001110 %
b00000001001110010001101000010110001010111011110010010001100111010000111000100111101010101000011000101100110100001001110000100110010010111001101100001001000010010001111001100000100100010110100011001110110100001110100011001010100000011000100010111111000011001000000010011100100011010000101100010101110111100100100011001110 .
b00001110001001111010101010000110001011001101000010011100001001100100101110011011000010010000100100011110011000001001000101101000110011101101000011101000110010101000000110001000101111110000110010000000100111001000110100001011000101011101111001001000101011001 8
1B
#71
0B
#72
b00000000000000000000000000100000 $
b00001110001001111010101010000110001011001101000010011100001001100100101110011011000010010000100100011110011000001001000101101000110011101101000011101000110010101000000110001000101111110000110010000000100111001000110100001011000101011101111001001000101011001 %
b00000010011100100011010000101100010101110111100100100010101100100001110001001111010101010000110001011001101000010011100001001100100101110011011000010010000100100011110011000001001000101101000110011101101000011101000110010101000000110001000101111110000110010000000100111001000110100001011000101011101111001001000101011001 .
b00011100010011110101010100001100010110011010000100111000010011001001011100110110000100100001001000111100110000010010001011010001100111011010000111010001100101010000001100010001011111100001100100000001001110010001101000010110001010111011110010010001010110010 8
1B
#73
0B
#74
b00000000000000000000000000100001 $
b00011100010011110101010100001100010110011010000100111000010011001001011100110110000100100001001000111100110000010010001011010001100111011010000111010001100101010000001100010001011111100001100100000001001110010001101000010110001010111011110010010001010110010 %
b00000100111001000110100001011000101011101111001001000101011001000011100010011110101010100001100010110011010000100111000010011001001011100110110000100100001001000111100110000010010001011010001100111011010000111010001100101010000001100010001011111100001100100000001001110010001101000010110001010111011110010010001010110010 .
b00111000100111101010101000011000101100110100001001110000100110010010111001101100001001000010010001111001100000100100010110100011001110110100001110100011001010100000011000100010111111000011001000000010011100100011010000101100010101110111100100100010101100100 8
1B
#75
0B
#76
b00000000000000000000000000100010 $
b00111000100111101010101000011000101100110100001001110000100110010010111001101100001001000010010001111001100000100100010110100011001110110100001110100011001010100000011000100010111111000011001000000010011100100011010000101100010101110111100100100010101100100 %
b00001001110010001101000010110001010111011110010010001010110010000111000100111101010101000011000101100110100001001110000100110010010111001101100001001000010010001111001100000100100010110100011001110110100001110100011001010100000011000100010111111000011001000000010011100100011010000101100010101110111100100100010101100100 .
b01110001001111010101010000110001011001101000010011100001001100100101110011011000010010000100100011110011000001001000101101000110011101101000011101000110010101000000110001000101111110000110010000000100111001000110100001011000101011101111001001000101011001000 8
1B
#77
0B
#78
b00000000000000000000000000100011 $
b01110001001111010101010000110001011001101000010011100001001100100101110011011000010010000100100011110011000001001000101101000110011101101000011101000110010101000000110001000101111110000110010000000100111001000110100001011000101011101111001001000101011001000 %
b00010011100100011010000101100010101110111100100100010101100100001110001001111010101010000110001011001101000010011100001001100100101110011011000010010000100100011110011000001001000101101000110011101101000011101000110010101000000110001000101111110000110010000000100111001000110100001011000101011101111001001000101011001000 .
b11100010011110101010100001100010110011010000100111000010011001001011100110110000100100001001000111100110000010010001011010001100111011010000111010001100101010000001100010001011111100001100100000001001110010001101000010110001010111011110010010001010110010000 8
1B
#79
0B
#80
b00000000000000000000000000100100 $
b11100010011110101010100001100010110011010000100111000010011001001011100110110000100100001001000111100110000010010001011010001100111011010000111010001100101010000001100010001011111100001100100000001001110010001101000010110001010111011110010010001010110010000 %
b00100111001000110100001011000101011101111001001000101011001000011100010011110101010100001100010110011010000100111000010011001001011100110110000100100001001000111100110000010010001011010001100111011010000111010001100101010000001100010001011111100001100100000001001110010001101000010110001010111011110010010001010110010000 .
b11000100111101010101000011000101100110100001001110000100110010010111001101100001001000010010001111001100000100100010110100011001110110100001110100011001010100000011000100010111111000011001000000010011100100011010000101100010101110111100100100010101111100101 8
1B
#81
0B
#82
b00000000000000000000000000100101 $
b11000100111101010101000011000101100110100001001110000100110010010111001101100001001000010010001111001100000100100010110100011001110110100001110100011001010100000011000100010111111000011001000000010011100100011010000101100010101110111100100100010101111100101 %
b01001110010001101000010110001010111011110010010001010111110010111000100111101010101000011000101100110100001001110000100110010010111001101100001001000010010001111001100000100100010110100011001110110100001110100011001010100000011000100010111111000011001000000010011100100011010000101100010101110111100100100010101111100101 .
b10001001111010101010000110001011001101000010011100001001100100101110011011000010010000100100011110011000001001000101101000110011101101000011101000110010101000000110001000101111110000110010000000100111001000110100001011000101011101111001001000101011100001111 8
1B
#83
0B
#84
b00000000000000000000000000100110 $
b10001001111010101010000110001011001101000010011100001001100100101110011011000010010000100100011110011000001001000101101000110011101101000011101000110010101000000110001000101111110000110010000000100111001000110100001011000101011101111001001000101011100001111 %
b10011100100011010000101100010101110111100100100010101110000111110001001111010101010000110001011001101000010011100001001100100101110011011000010010000100100011110011000001001000101101000110011101101000011101000110010101000000110001000101111110000110010000000100111001000110100001011000101011101111001001000101011100001111 .
b00010011110101010100001100010110011010000100111000010011001001011100110110000100100001001000111100110000010010001011010001100111011010000111010001100101010000001100010001011111100001100100000001001110010001101000010110001010111011110010010001010111011011011 8
1B
#85
0B
#86
b00000000000000000000000000100111 $
b00010011110101010100001100010110011010000100111000010011001001011100110110000100100001001000111100110000010010001011010001100111011010000111010001100101010000001100010001011111100001100100000001001110010001101000010110001010111011110010010001010111011011011 %
b00111001000110100001011000101011101111001001000101011101101101100010011110101010100001100010110011010000100111000010011001001011100110110000100100001001000111100110000010010001011010001100111011010000111010001100101010000001100010001011111100001100100000001001110010001101000010110001010111011110010010001010111011011011 .
b00100111101010101000011000101100110100001001110000100110010010111001101100001001000010010001111001100000100100010110100011001110110100001110100011001010100000011000100010111111000011001000000010011100100011010000101100010101110111100100100010101110110110110 8
1B
#87
0B
#88
b00000000000000000000000000101000 $
b00100111101010101000011000101100110100001001110000100110010010111001101100001001000010010001111001100000100100010110100011001110110100001110100011001010100000011000100010111111000011001000000010011100100011010000101100010101110111100100100010101110110110110 %
b01110010001101000010110001010111011110010010001010111011011011000100111101010101000011000101100110100001001110000100110010010111001101100001001000010010001111001100000100100010110100011001110110100001110100011001010100000011000100010111111000011001000000010011100100011010000101100010101110111100100100010101110110110110 .
b01001111010101010000110001011001101000010011100001001100100101110011011000010010000100100011110011000001001000101101000110011101101000011101000110010101000000110001000101111110000110010000000100111001000110100001011000101011101111001001000101011101101101100 8
1B
#89
0B
#90
b00000000000000000000000000101001 $
b01001111010101010000110001011001101000010011100001001100100101110011011000010010000100100011110011000001001000101101000110011101101000011101000110010101000000110001000101111110000110010000000100111001000110100001011000101011101111001001000101011101101101100 %
b11100100011010000101100010101110111100100100010101110110110110001001111010101010000110001011001101000010011100001001100100101110011011000010010000100100011110011000001001000101101000110011101101000011101000110010101000000110001000101111110000110010000000100111001000110100001011000101011101111001001000101011101101101100 .
b10011110101010100001100010110011010000100111000010011001001011100110110000100100001001000111100110000010010001011010001100111011010000111010001100101010000001100010001011111100001100100000001001110010001101000010110001010111011110010010001010111011011011000 8
1B
#91
0B
#92
b00000000000000000000000000101010 $
b10011110101010100001100010110011010000100111000010011001001011100110110000100100001001000111100110000010010001011010001100111011010000111010001100101010000001100010001011111100001100100000001001110010001101000010110001010111011110010010001010111011011011000 %
b11001000110100001011000101011101111001001000101011101101101100010011110101010100001100010110011010000100111000010011001001011100110110000100100001001000111100110000010010001011010001100111011010000111010001100101010000001100010001011111100001100100000001001110010001101000010110001010111011110010010001010111011011011000 .
b00111101010101000011000101100110100001001110000100110010010111001101100001001000010010001111001100000100100010110100011001110110100001110100011001010100000011000100010111111000011001000000010011100100011010000101100010101110111100100100010101110110101110101 8
1B
#93
0B
#94
b00000000000000000000000000101011 $
b00111101010101000011000101100110100001001110000100110010010111001101100001001000010010001111001100000100100010110100011001110110100001110100011001010100000011000100010111111000011001000000010011100100011010000101100010101110111100100100010101110110101110101 %
b10010001101000010110001010111011110010010001010111011010111010100111101010101000011000101100110100001001110000100110010010111001101100001001000010010001111001100000100100010110100011001110110100001110100011001010100000011000100010111111000011001000000010011100100011010000101100010101110111100100100010101110110101110101 .
b01111010101010000110001011001101000010011100001001100100101110011011000010010000100100011110011000001001000101101000110011101101000011101000110010101000000110001000101111110000110010000000100111001000110100001011000101011101111001001000101011101101011101010 8
1B
#95
0B
