makerchip-app/mini-cpu/Downloads/vlt_dump.vcd
$version Generated by VerilatedVcd $end
$date Tue Jan  5 07:01:25 2021
 $end
$timescale   1ns $end

 $scope module TOP $end
  $var wire  1 M5 clk $end
  $var wire  1 e5 failed $end
  $var wire  1 ]5 passed $end
  $var wire  1 U5 reset_async $end
  $scope module makerchip $end
   $var wire  1 M5 clk $end
   $var wire 32 _. cyc_cnt [31:0] $end
   $var wire  1 e5 failed $end
   $var wire  1 ]5 passed $end
   $var wire  1 W. reset $end
   $var wire  1 U5 reset_async $end
   $scope module top $end
    $var wire 12 51 FETCH_Instr_Mem_Word_a0(0) [11:0] $end
    $var wire 12 61 FETCH_Instr_Mem_Word_a0(1) [11:0] $end
    $var wire 12 ?1 FETCH_Instr_Mem_Word_a0(10) [11:0] $end
    $var wire 12 @1 FETCH_Instr_Mem_Word_a0(11) [11:0] $end
    $var wire 12 A1 FETCH_Instr_Mem_Word_a0(12) [11:0] $end
    $var wire 12 B1 FETCH_Instr_Mem_Word_a0(13) [11:0] $end
    $var wire 12 C1 FETCH_Instr_Mem_Word_a0(14) [11:0] $end
    $var wire 12 D1 FETCH_Instr_Mem_Word_a0(15) [11:0] $end
    $var wire 12 E1 FETCH_Instr_Mem_Word_a0(16) [11:0] $end
    $var wire 12 F1 FETCH_Instr_Mem_Word_a0(17) [11:0] $end
    $var wire 12 G1 FETCH_Instr_Mem_Word_a0(18) [11:0] $end
    $var wire 12 H1 FETCH_Instr_Mem_Word_a0(19) [11:0] $end
    $var wire 12 71 FETCH_Instr_Mem_Word_a0(2) [11:0] $end
    $var wire 12 I1 FETCH_Instr_Mem_Word_a0(20) [11:0] $end
    $var wire 12 J1 FETCH_Instr_Mem_Word_a0(21) [11:0] $end
    $var wire 12 K1 FETCH_Instr_Mem_Word_a0(22) [11:0] $end
    $var wire 12 L1 FETCH_Instr_Mem_Word_a0(23) [11:0] $end
    $var wire 12 M1 FETCH_Instr_Mem_Word_a0(24) [11:0] $end
    $var wire 12 N1 FETCH_Instr_Mem_Word_a0(25) [11:0] $end
    $var wire 12 O1 FETCH_Instr_Mem_Word_a0(26) [11:0] $end
    $var wire 12 P1 FETCH_Instr_Mem_Word_a0(27) [11:0] $end
    $var wire 12 Q1 FETCH_Instr_Mem_Word_a0(28) [11:0] $end
    $var wire 12 R1 FETCH_Instr_Mem_Word_a0(29) [11:0] $end
    $var wire 12 81 FETCH_Instr_Mem_Word_a0(3) [11:0] $end
    $var wire 12 S1 FETCH_Instr_Mem_Word_a0(30) [11:0] $end
    $var wire 12 T1 FETCH_Instr_Mem_Word_a0(31) [11:0] $end
    $var wire 12 91 FETCH_Instr_Mem_Word_a0(4) [11:0] $end
    $var wire 12 :1 FETCH_Instr_Mem_Word_a0(5) [11:0] $end
    $var wire 12 ;1 FETCH_Instr_Mem_Word_a0(6) [11:0] $end
    $var wire 12 <1 FETCH_Instr_Mem_Word_a0(7) [11:0] $end
    $var wire 12 =1 FETCH_Instr_Mem_Word_a0(8) [11:0] $end
    $var wire 12 >1 FETCH_Instr_Mem_Word_a0(9) [11:0] $end
    $var wire 12 3$ FETCH_Instr_Mem_Word_n1(0) [11:0] $end
    $var wire 12 4$ FETCH_Instr_Mem_Word_n1(1) [11:0] $end
    $var wire 12 =$ FETCH_Instr_Mem_Word_n1(10) [11:0] $end
    $var wire 12 >$ FETCH_Instr_Mem_Word_n1(11) [11:0] $end
    $var wire 12 ?$ FETCH_Instr_Mem_Word_n1(12) [11:0] $end
    $var wire 12 @$ FETCH_Instr_Mem_Word_n1(13) [11:0] $end
    $var wire 12 A$ FETCH_Instr_Mem_Word_n1(14) [11:0] $end
    $var wire 12 B$ FETCH_Instr_Mem_Word_n1(15) [11:0] $end
    $var wire 12 C$ FETCH_Instr_Mem_Word_n1(16) [11:0] $end
    $var wire 12 D$ FETCH_Instr_Mem_Word_n1(17) [11:0] $end
    $var wire 12 E$ FETCH_Instr_Mem_Word_n1(18) [11:0] $end
    $var wire 12 F$ FETCH_Instr_Mem_Word_n1(19) [11:0] $end
    $var wire 12 5$ FETCH_Instr_Mem_Word_n1(2) [11:0] $end
    $var wire 12 G$ FETCH_Instr_Mem_Word_n1(20) [11:0] $end
    $var wire 12 H$ FETCH_Instr_Mem_Word_n1(21) [11:0] $end
    $var wire 12 I$ FETCH_Instr_Mem_Word_n1(22) [11:0] $end
    $var wire 12 J$ FETCH_Instr_Mem_Word_n1(23) [11:0] $end
    $var wire 12 K$ FETCH_Instr_Mem_Word_n1(24) [11:0] $end
    $var wire 12 L$ FETCH_Instr_Mem_Word_n1(25) [11:0] $end
    $var wire 12 M$ FETCH_Instr_Mem_Word_n1(26) [11:0] $end
    $var wire 12 N$ FETCH_Instr_Mem_Word_n1(27) [11:0] $end
    $var wire 12 O$ FETCH_Instr_Mem_Word_n1(28) [11:0] $end
    $var wire 12 P$ FETCH_Instr_Mem_Word_n1(29) [11:0] $end
    $var wire 12 6$ FETCH_Instr_Mem_Word_n1(3) [11:0] $end
    $var wire 12 Q$ FETCH_Instr_Mem_Word_n1(30) [11:0] $end
    $var wire 12 R$ FETCH_Instr_Mem_Word_n1(31) [11:0] $end
    $var wire 12 7$ FETCH_Instr_Mem_Word_n1(4) [11:0] $end
    $var wire 12 8$ FETCH_Instr_Mem_Word_n1(5) [11:0] $end
    $var wire 12 9$ FETCH_Instr_Mem_Word_n1(6) [11:0] $end
    $var wire 12 :$ FETCH_Instr_Mem_Word_n1(7) [11:0] $end
    $var wire 12 ;$ FETCH_Instr_Mem_Word_n1(8) [11:0] $end
    $var wire 12 <$ FETCH_Instr_Mem_Word_n1(9) [11:0] $end
    $var wire  1 w& FETCH_Instr_Op_add_a0 $end
    $var wire  1 !' FETCH_Instr_Op_and_a0 $end
    $var wire  1 )' FETCH_Instr_Op_arith_a0 $end
    $var wire  1 1' FETCH_Instr_Op_bitwise_a0 $end
    $var wire  8 Q# FETCH_Instr_Op_char_a0 [7:0] $end
    $var wire  1 9' FETCH_Instr_Op_combine_a0 $end
    $var wire  1 Y# FETCH_Instr_Op_compare_a0 $end
    $var wire  1 A' FETCH_Instr_Op_conditional_a0 $end
    $var wire  1 I' FETCH_Instr_Op_div_a0 $end
    $var wire  1 Q' FETCH_Instr_Op_eq_a0 $end
    $var wire  1 a# FETCH_Instr_Op_full_a0 $end
    $var wire  1 Y' FETCH_Instr_Op_ge_a0 $end
    $var wire  1 a' FETCH_Instr_Op_gt_a0 $end
    $var wire  1 i' FETCH_Instr_Op_illegal_a0 $end
    $var wire  1 9# FETCH_Instr_Op_ld_a0 $end
    $var wire  1 q' FETCH_Instr_Op_le_a0 $end
    $var wire  1 y' FETCH_Instr_Op_lt_a0 $end
    $var wire  1 #( FETCH_Instr_Op_mem_a0 $end
    $var wire  1 +( FETCH_Instr_Op_mul_a0 $end
    $var wire  1 3( FETCH_Instr_Op_ne_a0 $end
    $var wire  1 ;( FETCH_Instr_Op_or_a0 $end
    $var wire  1 #$ FETCH_Instr_Op_st_a0 $end
    $var wire  1 C( FETCH_Instr_Op_sub_a0 $end
    $var wire  1 K( FETCH_Instr_Op_wide_imm_a0 $end
    $var wire 12 C0 FETCH_Instr_Pc_a0 [11:0] $end
    $var wire 12 K0 FETCH_Instr_Pc_a1 [11:0] $end
    $var wire 12 S0 FETCH_Instr_Pc_a2 [11:0] $end
    $var wire 12 [0 FETCH_Instr_Pc_a3 [11:0] $end
    $var wire 12 '" FETCH_Instr_Pc_n1 [11:0] $end
    $var wire 12 y3 FETCH_Instr_Reg_Value_a0(0) [11:0] $end
    $var wire 12 z3 FETCH_Instr_Reg_Value_a0(1) [11:0] $end
    $var wire 12 {3 FETCH_Instr_Reg_Value_a0(2) [11:0] $end
    $var wire 12 |3 FETCH_Instr_Reg_Value_a0(3) [11:0] $end
    $var wire 12 }3 FETCH_Instr_Reg_Value_a0(4) [11:0] $end
    $var wire 12 ~3 FETCH_Instr_Reg_Value_a0(5) [11:0] $end
    $var wire 12 !4 FETCH_Instr_Reg_Value_a0(6) [11:0] $end
    $var wire 12 "4 FETCH_Instr_Reg_Value_a0(7) [11:0] $end
    $var wire 12 S( FETCH_Instr_Reg_Value_n1(0) [11:0] $end
    $var wire 12 T( FETCH_Instr_Reg_Value_n1(1) [11:0] $end
    $var wire 12 U( FETCH_Instr_Reg_Value_n1(2) [11:0] $end
    $var wire 12 V( FETCH_Instr_Reg_Value_n1(3) [11:0] $end
    $var wire 12 W( FETCH_Instr_Reg_Value_n1(4) [11:0] $end
    $var wire 12 X( FETCH_Instr_Reg_Value_n1(5) [11:0] $end
    $var wire 12 Y( FETCH_Instr_Reg_Value_n1(6) [11:0] $end
    $var wire 12 Z( FETCH_Instr_Reg_Value_n1(7) [11:0] $end
    $var wire  2 5) FETCH_Instr_Src_illegal_a0 [2:1] $end
    $var wire 12 /" FETCH_Instr_addr_a0 [11:0] $end
    $var wire  1 7" FETCH_Instr_branch_a0 $end
    $var wire 12 ?" FETCH_Instr_branch_target_a0 [11:0] $end
    $var wire  1 G" FETCH_Instr_compare_rslt_a0 $end
    $var wire  8 O" FETCH_Instr_dest_char_a0 [7:0] $end
    $var wire  1 W" FETCH_Instr_dest_is_reg_a0 $end
    $var wire  3 _" FETCH_Instr_dest_reg_a0 [2:0] $end
    $var wire  8 g" FETCH_Instr_dest_tmp_a0 [7:0] $end
    $var wire  1 o" FETCH_Instr_dest_valid_a0 $end
    $var wire  1 w" FETCH_Instr_illegal_a0 $end
    $var wire  1 c0 FETCH_Instr_illegal_a1 $end
    $var wire  1 k0 FETCH_Instr_illegal_a2 $end
    $var wire  1 s0 FETCH_Instr_illegal_a3 $end
    $var wire  1 !# FETCH_Instr_illegal_dest_a0 $end
    $var wire  1 )# FETCH_Instr_jump_a0 $end
    $var wire 12 1# FETCH_Instr_jump_target_a0 [11:0] $end
    $var wire  1 9# FETCH_Instr_ld_a0 $end
    $var wire 12 A# FETCH_Instr_ld_rslt_a0 [11:0] $end
    $var wire  1 I# FETCH_Instr_no_dest_a0 $end
    $var wire  8 Q# FETCH_Instr_op_char_a0 [7:0] $end
    $var wire  1 Y# FETCH_Instr_op_compare_a0 $end
    $var wire  1 a# FETCH_Instr_op_full_a0 $end
    $var wire 12 i# FETCH_Instr_op_full_rslt_a0 [11:0] $end
    $var wire 40 q# FETCH_Instr_raw_a0 [39:0] $end
    $var wire  1 W. FETCH_Instr_reset_a0 $end
    $var wire  1 {0 FETCH_Instr_reset_a1 $end
    $var wire  1 %1 FETCH_Instr_reset_a2 $end
    $var wire  1 -1 FETCH_Instr_reset_a3 $end
    $var wire 12 1# FETCH_Instr_rslt_a0 [11:0] $end
    $var wire  1 #$ FETCH_Instr_st_a0 $end
    $var wire  1 +$ FETCH_Instr_write_pc_a0 $end
    $var wire  1 W. L0_reset_a0 $end
    $var wire 257 g. RW_rand_raw [256:0] $end
    $var wire 320 Q/ RW_rand_vect [319:0] $end
    $var wire  1 M5 clk $end
    $var wire 32 _. cyc_cnt [31:0] $end
    $var wire  1 e5 failed $end
    $var wire 40 # instrs(0) [39:0] $end
    $var wire 40 % instrs(1) [39:0] $end
    $var wire 40 7 instrs(10) [39:0] $end
    $var wire 40 9 instrs(11) [39:0] $end
    $var wire 40 ' instrs(2) [39:0] $end
    $var wire 40 ) instrs(3) [39:0] $end
    $var wire 40 + instrs(4) [39:0] $end
    $var wire 40 - instrs(5) [39:0] $end
    $var wire 40 / instrs(6) [39:0] $end
    $var wire 40 1 instrs(7) [39:0] $end
    $var wire 40 3 instrs(8) [39:0] $end
    $var wire 40 5 instrs(9) [39:0] $end
    $var wire  1 ]5 passed $end
    $var wire  1 W. reset $end
    $scope module DEBUG_SIGS $end
     $var wire  1 W. @0$reset $end
     $scope module |fetch $end
      $scope module /instr $end
       $var wire 12 ?" >>?$branch@0$branch_target [11:0] $end
       $var wire 12 1# >>?$dest_valid@0$rslt [11:0] $end
       $var wire 12 1# >>?$jump@0$jump_target [11:0] $end
       $var wire 12 /" >>?$ld@0$addr [11:0] $end
       $var wire 12 A# >>?$ld@0$ld_rslt [11:0] $end
       $var wire  1 G" >>?$op_compare@0$compare_rslt $end
       $var wire 12 i# >>?$op_full@0$op_full_rslt [11:0] $end
       $var wire 12 '" >>@-1$Pc [11:0] $end
       $var wire  1 7" >>@0$branch $end
       $var wire  8 O" >>@0$dest_char [7:0] $end
       $var wire  1 W" >>@0$dest_is_reg $end
       $var wire  3 _" >>@0$dest_reg [2:0] $end
       $var wire  8 g" >>@0$dest_tmp [7:0] $end
       $var wire  1 o" >>@0$dest_valid $end
       $var wire  1 w" >>@0$illegal $end
       $var wire  1 !# >>@0$illegal_dest $end
       $var wire  1 )# >>@0$jump $end
       $var wire  1 9# >>@0$ld $end
       $var wire  1 I# >>@0$no_dest $end
       $var wire  8 Q# >>@0$op_char [7:0] $end
       $var wire  1 Y# >>@0$op_compare $end
       $var wire  1 a# >>@0$op_full $end
       $var wire 40 q# >>@0$raw [39:0] $end
       $var wire  1 W. >>@0$reset $end
       $var wire  1 #$ >>@0$st $end
       $var wire  1 +$ >>@0$write_pc $end
       $scope module /mem(0) $end
        $var wire 12 =) >>@-1$Word [11:0] $end
       $upscope $end
       $scope module /mem(10) $end
        $var wire 12 /* >>@-1$Word [11:0] $end
       $upscope $end
       $scope module /mem(11) $end
        $var wire 12 7* >>@-1$Word [11:0] $end
       $upscope $end
       $scope module /mem(12) $end
        $var wire 12 ?* >>@-1$Word [11:0] $end
       $upscope $end
       $scope module /mem(13) $end
        $var wire 12 G* >>@-1$Word [11:0] $end
       $upscope $end
       $scope module /mem(14) $end
        $var wire 12 O* >>@-1$Word [11:0] $end
       $upscope $end
       $scope module /mem(15) $end
        $var wire 12 W* >>@-1$Word [11:0] $end
       $upscope $end
       $scope module /mem(16) $end
        $var wire 12 _* >>@-1$Word [11:0] $end
       $upscope $end
       $scope module /mem(17) $end
        $var wire 12 g* >>@-1$Word [11:0] $end
       $upscope $end
       $scope module /mem(18) $end
        $var wire 12 o* >>@-1$Word [11:0] $end
       $upscope $end
       $scope module /mem(19) $end
        $var wire 12 w* >>@-1$Word [11:0] $end
       $upscope $end
       $scope module /mem(1) $end
        $var wire 12 E) >>@-1$Word [11:0] $end
       $upscope $end
       $scope module /mem(20) $end
        $var wire 12 !+ >>@-1$Word [11:0] $end
       $upscope $end
       $scope module /mem(21) $end
        $var wire 12 )+ >>@-1$Word [11:0] $end
       $upscope $end
       $scope module /mem(22) $end
        $var wire 12 1+ >>@-1$Word [11:0] $end
       $upscope $end
       $scope module /mem(23) $end
        $var wire 12 9+ >>@-1$Word [11:0] $end
       $upscope $end
       $scope module /mem(24) $end
        $var wire 12 A+ >>@-1$Word [11:0] $end
       $upscope $end
       $scope module /mem(25) $end
        $var wire 12 I+ >>@-1$Word [11:0] $end
       $upscope $end
       $scope module /mem(26) $end
        $var wire 12 Q+ >>@-1$Word [11:0] $end
       $upscope $end
       $scope module /mem(27) $end
        $var wire 12 Y+ >>@-1$Word [11:0] $end
       $upscope $end
       $scope module /mem(28) $end
        $var wire 12 a+ >>@-1$Word [11:0] $end
       $upscope $end
       $scope module /mem(29) $end
        $var wire 12 i+ >>@-1$Word [11:0] $end
       $upscope $end
       $scope module /mem(2) $end
        $var wire 12 M) >>@-1$Word [11:0] $end
       $upscope $end
       $scope module /mem(30) $end
        $var wire 12 q+ >>@-1$Word [11:0] $end
       $upscope $end
       $scope module /mem(31) $end
        $var wire 12 y+ >>@-1$Word [11:0] $end
       $upscope $end
       $scope module /mem(3) $end
        $var wire 12 U) >>@-1$Word [11:0] $end
       $upscope $end
       $scope module /mem(4) $end
        $var wire 12 ]) >>@-1$Word [11:0] $end
       $upscope $end
       $scope module /mem(5) $end
        $var wire 12 e) >>@-1$Word [11:0] $end
       $upscope $end
       $scope module /mem(6) $end
        $var wire 12 m) >>@-1$Word [11:0] $end
       $upscope $end
       $scope module /mem(7) $end
        $var wire 12 u) >>@-1$Word [11:0] $end
       $upscope $end
       $scope module /mem(8) $end
        $var wire 12 }) >>@-1$Word [11:0] $end
       $upscope $end
       $scope module /mem(9) $end
        $var wire 12 '* >>@-1$Word [11:0] $end
       $upscope $end
       $scope module /op $end
        $var wire  1 w& >>>@0$add $end
        $var wire  1 !' >>>@0$and $end
        $var wire  1 )' >>>@0$arith $end
        $var wire  1 1' >>>@0$bitwise $end
        $var wire  8 Q# >>>@0$char [7:0] $end
        $var wire  1 9' >>>@0$combine $end
        $var wire  1 Y# >>>@0$compare $end
        $var wire  1 A' >>>@0$conditional $end
        $var wire  1 I' >>>@0$div $end
        $var wire  1 Q' >>>@0$eq $end
        $var wire  1 a# >>>@0$full $end
        $var wire  1 Y' >>>@0$ge $end
        $var wire  1 a' >>>@0$gt $end
        $var wire  1 i' >>>@0$illegal $end
        $var wire  1 9# >>>@0$ld $end
        $var wire  1 q' >>>@0$le $end
        $var wire  1 y' >>>@0$lt $end
        $var wire  1 #( >>>@0$mem $end
        $var wire  1 +( >>>@0$mul $end
        $var wire  1 3( >>>@0$ne $end
        $var wire  1 ;( >>>@0$or $end
        $var wire  1 #$ >>>@0$st $end
        $var wire  1 C( >>>@0$sub $end
        $var wire  1 K( >>>@0$wide_imm $end
       $upscope $end
       $scope module /reg(0) $end
        $var wire 12 #, >>@-1$Value [11:0] $end
       $upscope $end
       $scope module /reg(1) $end
        $var wire 12 +, >>@-1$Value [11:0] $end
       $upscope $end
       $scope module /reg(2) $end
        $var wire 12 3, >>@-1$Value [11:0] $end
       $upscope $end
       $scope module /reg(3) $end
        $var wire 12 ;, >>@-1$Value [11:0] $end
       $upscope $end
       $scope module /reg(4) $end
        $var wire 12 C, >>@-1$Value [11:0] $end
       $upscope $end
       $scope module /reg(5) $end
        $var wire 12 K, >>@-1$Value [11:0] $end
       $upscope $end
       $scope module /reg(6) $end
        $var wire 12 S, >>@-1$Value [11:0] $end
       $upscope $end
       $scope module /reg(7) $end
        $var wire 12 [, >>@-1$Value [11:0] $end
       $upscope $end
       $scope module /src(1) $end
        $var wire 12 E- >>>?$local_is_reg@0$reg_value [11:0] $end
        $var wire 12 U- >>>?$valid@0$value [11:0] $end
        $var wire  8 c, >>>@0$char [7:0] $end
        $var wire  1 k, >>>@0$illegal $end
        $var wire  8 s, >>>@0$imm_tmp [7:0] $end
        $var wire  3 {, >>>@0$imm_value [2:0] $end
        $var wire  1 %- >>>@0$is_imm $end
        $var wire  1 -- >>>@0$is_reg $end
        $var wire  1 -- >>>@0$local_is_reg $end
        $var wire  3 5- >>>@0$reg [2:0] $end
        $var wire  8 =- >>>@0$reg_tmp [7:0] $end
        $var wire  1 M- >>>@0$valid $end
       $upscope $end
       $scope module /src(2) $end
        $var wire 12 ?. >>>?$local_is_reg@0$reg_value [11:0] $end
        $var wire 12 O. >>>?$valid@0$value [11:0] $end
        $var wire  8 ]- >>>@0$char [7:0] $end
        $var wire  1 e- >>>@0$illegal $end
        $var wire  8 m- >>>@0$imm_tmp [7:0] $end
        $var wire  3 u- >>>@0$imm_value [2:0] $end
        $var wire  1 }- >>>@0$is_imm $end
        $var wire  1 '. >>>@0$is_reg $end
        $var wire  1 '. >>>@0$local_is_reg $end
        $var wire  3 /. >>>@0$reg [2:0] $end
        $var wire  8 7. >>>@0$reg_tmp [7:0] $end
        $var wire  1 G. >>>@0$valid $end
       $upscope $end
      $upscope $end
     $upscope $end
    $upscope $end
    $scope module L1_FETCH_Instr_Src(1) $end
     $var wire  8 c, L1_char_a0 [7:0] $end
    $upscope $end
    $scope module L1_FETCH_Instr_Src(2) $end
     $var wire  8 ]- L1_char_a0 [7:0] $end
    $upscope $end
    $scope module L1b_FETCH_Instr_Src(1) $end
     $var wire  8 s, L1_imm_tmp_a0 [7:0] $end
     $var wire  3 {, L1_imm_value_a0 [2:0] $end
     $var wire  1 %- L1_is_imm_a0 $end
     $var wire  1 -- L1_is_reg_a0 $end
     $var wire  3 5- L1_reg_a0 [2:0] $end
     $var wire  8 =- L1_reg_tmp_a0 [7:0] $end
    $upscope $end
    $scope module L1b_FETCH_Instr_Src(2) $end
     $var wire  8 m- L1_imm_tmp_a0 [7:0] $end
     $var wire  3 u- L1_imm_value_a0 [2:0] $end
     $var wire  1 }- L1_is_imm_a0 $end
     $var wire  1 '. L1_is_reg_a0 $end
     $var wire  3 /. L1_reg_a0 [2:0] $end
     $var wire  8 7. L1_reg_tmp_a0 [7:0] $end
    $upscope $end
    $scope module L1c_FETCH_Instr_Src(1) $end
     $var wire  1 -- L1_local_is_reg_a0 $end
     $var wire 12 E- L1_reg_value_a0 [11:0] $end
     $var wire  1 M- L1_valid_a0 $end
     $var wire 12 U- L1_value_a0 [11:0] $end
    $upscope $end
    $scope module L1c_FETCH_Instr_Src(2) $end
     $var wire  1 '. L1_local_is_reg_a0 $end
     $var wire 12 ?. L1_reg_value_a0 [11:0] $end
     $var wire  1 G. L1_valid_a0 $end
     $var wire 12 O. L1_value_a0 [11:0] $end
    $upscope $end
    $scope module pseudo_rand $end
     $var wire 257 c4 DEFAULT_lfsr_a1 [256:0] $end
     $var wire 257 g. DEFAULT_lfsr_a2 [256:0] $end
     $var wire  1 W. DEFAULT_reset_a0 $end
     $var wire  1 [4 DEFAULT_reset_a1 $end
     $var wire 257 u5 LFSR_POLY [256:0] $end
     $var wire 32 m5 LFSR_WIDTH [31:0] $end
     $var wire 257 _6 SEED [256:0] $end
     $var wire 32 m5 WIDTH [31:0] $end
     $var wire  1 M5 clk $end
     $var wire 257 g. rand_vect [256:0] $end
     $var wire  1 W. reset $end
    $upscope $end
   $upscope $end
  $upscope $end
 $upscope $end
$enddefinitions $end


#0
b0110011100111101001100000111111000110000 #
b0110001000111101001100000111111000110001 %
b0110001100111101001100010111111000110010 '
b0110010000111101001100000111111000110000 )
b0110011000111101001100000010110100110110 +
b0110010000111101011001000010101101100010 -
b0011000000111101011001000111110101100111 /
b0110001000111101011000100010101100110001 1
b0110011100111101011001110010101100110001 3
b0110010100111101011000110010110101100010 5
b0111000000111101011001100011111101100101 7
b0101000000111101001100000010110100110001 9
b000000000001 '"
b000000000000 /"
07"
b000000000001 ?"
0G"
b01100111 O"
1W"
b110 _"
b00000110 g"
1o"
0w"
0!#
0)#
b000000000000 1#
09#
b000000000000 A#
0I#
b01111110 Q#
0Y#
1a#
b000000000000 i#
b0110011100111101001100000111111000110000 q#
0#$
0+$
b000000000000 3$
b000000000000 4$
b000000000000 5$
b000000000000 6$
b000000000000 7$
b000000000000 8$
b000000000000 9$
b000000000000 :$
b000000000000 ;$
b000000000000 <$
b000000000000 =$
b000000000000 >$
b000000000000 ?$
b000000000000 @$
b000000000000 A$
b000000000000 B$
b000000000000 C$
b000000000000 D$
b000000000000 E$
b000000000000 F$
b000000000000 G$
b000000000000 H$
b000000000000 I$
b000000000000 J$
b000000000000 K$
b000000000000 L$
b000000000000 M$
b000000000000 N$
b000000000000 O$
b000000000000 P$
b000000000000 Q$
b000000000000 R$
0w&
0!'
0)'
01'
09'
0A'
0I'
0Q'
0Y'
0a'
0i'
0q'
0y'
0#(
0+(
03(
0;(
0C(
1K(
b000000000000 S(
b000000000000 T(
b000000000000 U(
b000000000000 V(
b000000000000 W(
b000000000000 X(
b000000000000 Y(
b000000000000 Z(
b00 5)
b000000000000 =)
b000000000000 E)
b000000000000 M)
b000000000000 U)
b000000000000 ])
b000000000000 e)
b000000000000 m)
b000000000000 u)
b000000000000 })
b000000000000 '*
b000000000000 /*
b000000000000 7*
b000000000000 ?*
b000000000000 G*
b000000000000 O*
b000000000000 W*
b000000000000 _*
b000000000000 g*
b000000000000 o*
b000000000000 w*
b000000000000 !+
b000000000000 )+
b000000000000 1+
b000000000000 9+
b000000000000 A+
b000000000000 I+
b000000000000 Q+
b000000000000 Y+
b000000000000 a+
b000000000000 i+
b000000000000 q+
b000000000000 y+
b000000000000 #,
b000000000000 +,
b000000000000 3,
b000000000000 ;,
b000000000000 C,
b000000000000 K,
b000000000000 S,
b000000000000 [,
b00110000 c,
0k,
b00000000 s,
b000 {,
1%-
0--
b111 5-
b11001111 =-
b000000000000 E-
1M-
b000000000000 U-
b00110000 ]-
0e-
b00000000 m-
b000 u-
1}-
0'.
b111 /.
b11001111 7.
b000000000000 ?.
1G.
b000000000000 O.
0W.
b00000000000000000000000000000000 _.
b00000000000000000000000000000000000000000000000000000000000000000000000000000000000000000000000000000000000000000000000000000000000000000000000000000000000000000000000000000000000000000000000000000000000000000000000000000000000000000000000000000000000000000 g.
b00000000000000000000000000000000000000000000000000000000000000000000000000000000000000000000000000000000000000000000000000000000000000000000000000000000000000000000000000000000000000000000000000000000000000000000000000000000000000000000000000000000000000000000000000000000000000000000000000000000000000000000000000000000 Q/
b000000000000 C0
b000000000000 K0
b000000000000 S0
b000000000000 [0
0c0
0k0
0s0
0{0
0%1
0-1
b000000000000 51
b000000000000 61
b000000000000 71
b000000000000 81
b000000000000 91
b000000000000 :1
b000000000000 ;1
b000000000000 <1
b000000000000 =1
b000000000000 >1
b000000000000 ?1
b000000000000 @1
b000000000000 A1
b000000000000 B1
b000000000000 C1
b000000000000 D1
b000000000000 E1
b000000000000 F1
b000000000000 G1
b000000000000 H1
b000000000000 I1
b000000000000 J1
b000000000000 K1
b000000000000 L1
b000000000000 M1
b000000000000 N1
b000000000000 O1
b000000000000 P1
b000000000000 Q1
b000000000000 R1
b000000000000 S1
b000000000000 T1
b000000000000 y3
b000000000000 z3
b000000000000 {3
b000000000000 |3
b000000000000 }3
b000000000000 ~3
b000000000000 !4
b000000000000 "4
0[4
b00000000000000000000000000000000000000000000000000000000000000000000000000000000000000000000000000000000000000000000000000000000000000000000000000000000000000000000000000000000000000000000000000000000000000000000000000000000000000000000000000000000000000000 c4
1M5
1U5
0]5
0e5
b00000000000000000000000100000001 m5
b00000000000000000000000000000000000000000000000000000000000000000000000000000000000000000000000000000000000000000000000000000000000000000000000000000000000000000000000000000000000000000000000000000000000000000000000000000000000000000000000000000000011000101 u5
b00111000101100011111000010110100001110001001111010101010000110001011001101000010011100001001100100101110011011000010010000100100011110011000001001000101101000110011101101000011101000110010101000000110001000101111110000110010000000100111001000110100001001010 _6
#1
0M5
#2
b000000000000 '"
b000000000001 /"
b000000000011 ?"
b01100010 O"
b001 _"
b00000001 g"
b000000000001 1#
b000000000001 i#
b0110001000111101001100000111111000110001 q#
b000000000001 T(
b000000000001 +,
b00110001 ]-
b00000001 m-
b001 u-
b000 /.
b11010000 7.
b000000000001 O.
1W.
b00000000000000000000000000000001 _.
b000000000001 C0
1M5
#3
0M5
#4
b000000000000 /"
b000000000001 ?"
b01100111 O"
b110 _"
b00000110 g"
b000000000000 1#
b000000000000 i#
b0110011100111101001100000111111000110000 q#
b00110000 ]-
b00000000 m-
b000 u-
b111 /.
b11001111 7.
b000000000000 O.
b000000000000 C0
b000000000001 K0
1{0
b000000000001 z3
1[4
b00111000101100011111000010110100001110001001111010101010000110001011001101000010011100001001100100101110011011000010010000100100011110011000001001000101101000110011101101000011101000110010101000000110001000101111110000110010000000100111001000110100001001010 c4
1M5
#5
0M5
#6
b00111000101100011111000010110100001110001001111010101010000110001011001101000010011100001001100100101110011011000010010000100100011110011000001001000101101000110011101101000011101000110010101000000110001000101111110000110010000000100111001000110100001001010 g.
b00011000100010111111000011001000000010011100100011010000100101000111000101100011111000010110100001110001001111010101010000110001011001101000010011100001001100100101110011011000010010000100100011110011000001001000101101000110011101101000011101000110010101000000110001000101111110000110010000000100111001000110100001001010 Q/
b000000000000 K0
b000000000001 S0
1%1
1M5
#7
0M5
#8
b000000000000 S0
b000000000001 [0
1-1
1M5
#9
0M5
0U5
#10
b000000000001 '"
0W.
b000000000000 [0
1M5
#11
0M5
#12
b000000000010 '"
b000000000001 /"
b000000000011 ?"
b01100010 O"
b001 _"
b00000001 g"
b000000000001 1#
b000000000001 i#
b0110001000111101001100000111111000110001 q#
b00110001 ]-
b00000001 m-
b001 u-
b000 /.
b11010000 7.
b000000000001 O.
b00000000000000000000000000000010 _.
b000000000001 C0
0{0
0[4
b01110001011000111110000101101000011100010011110101010100001100010110011010000100111000010011001001011100110110000100100001001000111100110000010010001011010001100111011010000111010001100101010000001100010001011111100001100100000001001110010001101000010010100 c4
1M5
#13
0M5
#14
b000000000011 '"
b000000000011 /"
b000000001101 ?"
b01100011 O"
b010 _"
b00000010 g"
b000000001010 1#
b000000001010 i#
b0110001100111101001100010111111000110010 q#
b000000001010 U(
b000000001010 3,
b00110001 c,
b00000001 s,
b001 {,
b000 5-
b11010000 =-
b000000000001 U-
b00110010 ]-
b00000010 m-
b010 u-
b001 /.
b11010001 7.
b000000000001 ?.
b000000000010 O.
b00000000000000000000000000000011 _.
b01110001011000111110000101101000011100010011110101010100001100010110011010000100111000010011001001011100110110000100100001001000111100110000010010001011010001100111011010000111010001100101010000001100010001011111100001100100000001001110010001101000010010100 g.
b00110001000101111110000110010000000100111001000110100001001010001110001011000111110000101101000011100010011110101010100001100010110011010000100111000010011001001011100110110000100100001001000111100110000010010001011010001100111011010000111010001100101010000001100010001011111100001100100000001001110010001101000010010100 Q/
b000000000010 C0
b000000000001 K0
0%1
b11100010110001111100001011010000111000100111101010101000011000101100110100001001110000100110010010111001101100001001000010010001111001100000100100010110100011001110110100001110100011001010100000011000100010111111000011001000000010011100100011010000100101000 c4
1M5
#15
0M5
